{
  "l01": {
    "name": "賃貸（居住用・店舗事務所）",
    "icon": "category_icon01.png",
    "description": "賃貸でお部屋を借りる際に一番重要なのは、お客様の方で信頼できる業者の選択方法や、賃貸物件の選択方法を見極める力を付けるのが最善の方法になります。若い女性が一人暮らしを始める際には、特にそうです。信頼できる業者の選択基準は、①大手上場不動産業者で有る事、②地場業者では、社歴が長く、地域に密着して営業している事等、があげられますが、①②を満たしていても例外がございます。賃貸物件の選択方法は、多くの物件図面に目を通し、家賃相場や選択地域の地域の特性を現地に行って確認するのが重要ですが、大家の性格などに付いては不動産業者の情報に頼る形になります。",
    "middle_categories": {
      "m0101": {
        "name": "賃貸全般",
        "img": "category_thumb_m11.png",
        "description": "このトピックでは、賃貸全般の事項を深く掘り下げていきます。基本的な注意点～知っておくと有利な点まで解説致します。",
        "small_categories": {
          "s010101": {
            "name": "・賃貸契約に必要な書類は？",
            "img": "category_thumb_s111.png",
            "description": "運転免許書・保健証等の身分証明書、住民票、ハンコ（三文判ＯＫ ・シャチハタ不可）、連帯保証人必須の場合は連帯保証人の印鑑証明書（最近は不要な場合も多い）。"
          },
          "s010102": {
            "name": "・優良な不動産業者の選択方法は？",
            "img": "category_thumb_s112.png",
            "description":"不動産ドットコムでは、優良な不動産業者しか掲載しておりませんが、一般的に優良な不動産業者の選択方法を、このトピックでは扱います。一般的に、不動産免許番号のカッコの数字が大きければ大きいほど信用が高い（例：（1）＜（3））と言われていますが、その他の重要な注意点をこのトピックで扱います。"
          },
          "s010103": {
            "name": "・保険、カギの交換はどうするの？",
            "img": "category_thumb_s113.png",
            "description": "保険については、不動産業者に強制加入させられるので従うしかないでしょう。カギの交換は任意である場合も多いですが前の入居者の合い鍵で無断侵入される可能性を考慮すると変える必要が有るでしょう。この部分の細かい事項を語るトピックです。"
          },
          "s010104": {
            "name": "・タバコを吸う場合の注意点は？",
            "img": "category_thumb_s114.png",
            "description": "タバコを吸われる入居者のお部屋は、タバコの煙により壁が茶色に変色し、ニコチンの臭いがなかなか取れません。その為、リフォーム費用が掛かる傾向に有ります。"
          },
          "s010105": {
            "name": "・日当たりのポイントは？",
            "img": "category_thumb_s114.png",
            "description": "東南角部屋の物件図面を気に入って、物件を内見したら、大きな建物の陰になっていて日当たりが悪かった、という話は良く有ります。また、物件図面の方位も実際よりも南向きに書かれているケースも多いです。物件の内見で日当たりは確認しましょう。"
          },
          "s010106": {
            "name": "・外国人の方がお部屋を借りるには？",
            "img": "category_thumb_s114.png",
            "description": "人口減少に伴う空室の増加により、昔よりも外国人の方も賃貸物件を借りやすくなっている状況です。さらに借りやすくなる方法をこのトピックでは扱います。"
          }
        }
      },
      "m0102": {
        "name": "進学・就職に当たり、どの街を選択するべきか？",
        "img": "category_thumb_m12.png",
        "description": "街にはカラーと特徴が有り、住む街の選択によって人生を左右すると言っても過言では有りません。特に、小学生～高校生の時期においては人生の大きな環境要因になります。道一本渡っただけで、全ての環境が異なるのが不動産の醍醐味とも言えます。",
        "small_categories": {
          "s010201": {
            "name": "・異常に安い地域は要注意？",
            "img": "category_thumb_s000.png",
            "description": "賃貸物件相場を見ていると、主要駅の近くで利便性が高いのに、異常に賃料が安い地域が有ります。そういう地域は、風俗街であったり（近年は店舗型風俗が当局の指導で閉鎖されているので街の風景からは判別出来ない）、反社会的勢力の事務所の密集地で有ったり、反社会的な宗教団体の施設が有るなどの理由が有るケースが多いです。"
          },
          "s010202": {
            "name": "・大学、専門学校への進学での街の選択方法",
            "img": "category_thumb_s000.png",
            "description": "学校への距離で住む街を選択するのが基本で、この部分を徹底するべきです。講義のコマに間隔が空いたり（１限の次が、４限とか）、休講になるケースも多いので、自宅までの距離が遠いと、ヒマ潰しに苦労します。しかし、そういう学校に近い物件は合格発表後に即座に決まります。このトピックでは好物件をＧＥＴする方法論を議論します。"
          },
          "s010203": {
            "name": "・将来目指す職業に有利な町を選択しよう。",
            "img": "category_thumb_s000.png",
            "description": "問屋街、学生街、オフィス街、と言った分類の他にも、将来目指す職業に有利な町の選択が、夢の実現を大きく左右します。バンド活動を目指して上京するなら定番の高円寺、下北沢という選択は有名ですが、声優を目指すのに有利な町、ベンチャー起業家を目指すのに有利な町、難関資格を取得するのに有利な町、と言った個別の情報を議論するトピックです。質問例①バンド目指すのに最適な町は？質問例②声優を目指すのに最適な町は？質問例③～大学に通うのに最適な町は？質問例②ユーチューバーを目指すのに最適な町は？"
          }
        }
      },
      "m0103": {
        "name": "初めての一人暮らし",
        "img": "category_thumb_m13.png",
            "description": "進学・就職等での初めての一人暮らしは、とにかく不安なものです。このトピックでは、初めてお部屋を借りる際の注意点を詳しく解説して行きます。",
        "small_categories": {
          "s010301": {
            "name": "・一人暮らしの予算は？",
            "img": "category_thumb_s000.png",
            "description": "通常の不動産屋さんでの契約では、前家賃１ヵ月＋礼金１か月分＋敷金１か月分＋仲介手数料１か月分＋保証会社の保証料：家賃の30％程度＋火災保険１．５万円＋鍵交換代金１．５万円で、家賃の合計５か月分程度が標準的な費用となります。質問例①予算が無いので、礼０敷０仲介手数料０の物件を借りたいのですが？質問例②予算が無いので、一人暮らしの物件を借りて２人で暮らしたいのですが可能ですか？"
          },
          "s010302": {
            "name": "・女性の一人暮らしの注意点は？",
            "img": "category_thumb_s000.png",
            "description": "女性の一人暮らしは、防犯性に優れた住宅・立地を選ぶのが重要です。マンションやアパートなら２階以上、オートロック付き物件等の設備面に加えて、駅から物件までの街路灯の多さや、道路の視認性のチェックも重要です。質問例①現在、ストーカー被害に困っており、誰にも知られずに引っ越しをする良い方法は有りますか？質問例②駅近くの５階建てのマンションを検討していますが、２階以上の何階に住むのが防犯性が高いですか？"
          },
          "s010303": {
            "name": "・男性の一人暮らしの注意点は？",
            "img": "category_thumb_s000.png",
            "description": "若い男性の一人暮らしにお勧めの物件はアパートマンションの１階物件になります。１階物件は２階以上と比較すると人気が無いので、家賃の値下げ交渉が有効です。"
          }
        }
      },
      "m0104": {
        "name": "ファミリータイプの賃貸の注意点",
        "img": "category_thumb_m13.png",
            "description": "ワンルームと違い、ファミリータイプマンションには、管理組合等の管理の問題と共存する事になります。赤ちゃんの泣き声等の騒音等の問題や、ペット不可物件のペット問題や、ベランダでのタバコによる煙害の問題等をこのトピックで扱います。",
        "small_categories": {
          "s010401": {
            "name": "・ファミリータイプの賃貸費用の予算は？",
            "img": "category_thumb_s000.png",
            "description": "ファミリータイプの予算は、一人暮らしを個別でするよりも安くなります。例えば、２人がそれぞれ一人暮らしするより２/３程度の予算で収まるメリットが有ります。→続いて、ファミリータイプの予算の御相談、になります。"
          },
          "s010402": {
            "name": "・ファミリータイプを借りる時の注意点は？",
            "img": "category_thumb_s000.png",
            "description": "ファミリータイプでのトラブルは子供の騒ぎ声などの騒音問題が一番多いです。これを避ける為には、同じ年代の子供が居る家庭で同フロアを埋める等の不動産業者の工夫が必要ですが入居希望者からも、隣人の子供の年齢を確認すると良いでしょう。"
          }
        }
      },
      "m0105": {
        "name": "賃貸物件の設備について",
        "img": "category_thumb_m13.png",
            "description": "人口減少による空室の増加により、入居者確保の為に賃貸の内装・設備も充実している物件も多くなっています。有ると便利な設備と機能の解説と、家賃の増減についてのトピックです。",
        "small_categories": {
          "s010501": {
            "name": "・オール電化と、ガス併用住宅の長所短所について。",
            "img": "category_thumb_s000.png",
            "description": "オール電化はガス漏れ事故や一酸化炭素中毒の危険性が無いメリットが有る反面、電気温水器の場合は建物内が暑くなるデメリットが有り、機構が複雑な為に旧式の器具を使った物件は故障が多い傾向が有ります。質問例①電気コンロと、ガスコンロとどちらが良いですか？質問例②エコキュート器具を実際に使用している方の感想が聞きたいです。質問例③ガス湯沸機と、電気温水器の比較は？"
          },
          "s010502": {
            "name": "・古い物件の水回りについて注意するべき点は？",
            "img": "category_thumb_s000.png",
            "description": "古い物件は内装外装はリフォームで綺麗になりますが、配管や下水管の取替は困難です。古い物件（80年代物件でも）は、水の出が悪かったり、下水管から悪臭が上ってくる事が有るので、実際に水を出してみたり、臭いを嗅いで確認しましょう。"
          },
          "s010503": {
            "name": "・洗濯機置場の注意点について",
            "img": "category_thumb_s000.png",
            "description": "～平成５年位の物件は二槽式洗濯機、～平成20年位までは普通の全自動洗濯機、～平成29年まではドラム式全自動洗濯機が流行してきましたが、洗濯機を置くバンの大きさが適応しないケースが多く、入居前に大きさを確認すると良いでしょう。"
          }
        }
      },
      "m0106": {
        "name": "賃貸（事務所＆店舗、物件）",
        "img": "category_thumb_m13.png",
            "description": "事務所＆店舗物件は、居住用物件と異なり、滞納リスクが上がりますので、大家さんも注意する必要が有り、店子さんも賃借する上で十分な資金計画が必要になります。",
        "small_categories": {
          "s010601": {
            "name": "・事務所＆店舗物件の敷金負担を減らす方法は？",
            "img": "category_thumb_s000.png",
            "description": "商売が不調で滞納が始まると、土地家屋明け渡し訴訟の強制執行まで半年掛かり、大家は多額の金銭負担、店子は保証会社のブラックリストに載り新たな物件の賃貸は難しくなります。その為、滞納に備えて事務所＆店舗物件の敷金は多額になります。"
          },
          "s010602": {
            "name": "・造作（内装）の売却＆購入について",
            "img": "category_thumb_s000.png",
            "description": "前の賃借人が多額の金銭を掛けて内装工事をした後に商売不振で撤退する場合、造作（内装）の売却が問題になります。最悪、売却先が見つからない場合は内装の解体撤去になります。借主にとっては、良質で豪華な内装を買い叩いて安く購入する絶好のチャンスでもあります。"
          },
          "s010603": {
            "name": "・造作を新たに作る時は大家の承諾はどこまで必要か？",
            "img": "category_thumb_s000.png",
            "description": "契約前の段階で、内装業者の設計図面と納期を書面化し、大家と店子、仲介業者との間で打ち合わせをする事が大事です。この点をおろそかにすると、大きなトラブルに発展します。"
          }
          "s010604": {
            "name": "・店舗物件を借りるポイントは？",
            "img": "category_thumb_s000.png",
            "description": "商売全般に言える話ですが、立地条件で勝負が決まります。学校に通う学生さんの通学路や、図書館や大規模商業施設のお客さんの動線に立地する物件を賃借出来るかが勝負です。このトピックでは、好物件を賃借するポイントを扱います。"
          }
        }
      },
      "m0107": {
        "name": "借りたい方の個別物件の相談コーナー",
        "img": "category_thumb_m13.png",
            "description": "",
        "small_categories": {
          "s010701": {
            "name": "・借りたい希望物件のリンク先or図面を貼って質問して下されば、不動産業者や、専門家や実務家がアドバイス致します。",
            "img": "category_thumb_s000.png",
            "description": "希望物件のリンク先or図面を貼って質問して下されば、不動産業者や、専門家や実務家がアドバイス致します。"
          }
        },
        "m0108": {
        "name": "「賃貸物件を貸したい方の個別物件の相談コーナー」",
        "img": "category_thumb_m13.png",
            "description": "",
        "small_categories": {
          "s010801": {
            "name": "・現在、入居者募集中の、貸したい希望物件のリンク先or図面を貼って質問して下されば、不動産業者や、専門家や実務家がアドバイス致します。",
            "img": "category_thumb_s000.png",
            "description": "現在、入居者募集中の、貸したい希望物件のリンク先or図面を貼って質問して下されば、不動産業者や、専門家や実務家がアドバイス致します。"
          }
        }
      }
    },
    "deploy_flag":0
  },
  "l02": {
    "name": "売買",
    "icon": "category_icon02.png",
    "description": "不動産の購入売却は奥が深く、一般人が購入売却するのは困難が伴いますので信頼できる不動産業者＆不動産専門家と連絡を密に取り遂行するのが良いでしょう。一番マズいのが中途半端な知識を持って高難易度な物件購入をする事です（例：素人が競売物件に手を出す等、境界非明示の戸建ての購入等）。購入売却時にはお客様の方でも、知識武装・理論武装をして不動産業者を圧倒する程の勉強をされるのが理想です。",
    "middle_categories": {
      "m0201": {
        "name": "売買(全般)",
        "img": "category_thumb_m00.png",
        "description": "このトピックでは売買全般について取り扱います。",
        "small_categories": {
          "s020101": {
            "name": "・賃貸と持ち家は、どっちが良い？",
            "img": "category_thumb_s000.png",
            "description": "賃貸と持ち家の選択は、物件と購入時期次第という事になります。相場が高値の時期に郊外の駅から遠い物件を買うよりは、都心の利便性の高い賃貸の方が良いでしょう。逆に相場が安い時期に都心の好物件を買えるのなら、賃貸よりも持ち家の方が良いでしょう。"
          },
          "s020102": {
            "name": "・マンションと戸建ての違いは？",
            "img": "category_thumb_s000.png",
            "description": "マンションのメリットは、好立地と眺望、管理が楽である事に加えて、一面フラットの膝への負担の軽さが魅力ですが、地震の際のエレベーターの停止、一部住民の騒音問題、管理費の滞納、建て替え問題等のデメリットも存在します。戸建てのメリットは、他者とのトラブルが少ない事、建物が劣化しても土地が残るので資産価値が高い、庭いじりが出来る事等です。やはり、階段の上り下りの膝への負担が大きなデメリットです。"
          },
          "s020103": {
            "name": "・良い営業マンの見分け方は？",
            "img": "category_thumb_s000.png",
            "description": "一般的には宅建所有＆大手仲介会社の営業マンが良いように思えますが、営業力では中小零細仲介会社の営業マンの方が有るケースが多いです。色々と雑談してみて、不動産知識や仕事に対する熱意を確認して判断するのが良いでしょう。中小零細仲介会社の場合には、社名や営業マンの名前も検索してみて、過去にトラブルが無いか確認するのも良いでしょう。"
          },
          "s020104": {
            "name": "・安く不動産を購入するポイントは？",
            "img": "category_thumb_s000.png",
            "description": "物件の内見の際に、売主さんが立ち会いする際には、小奇麗な服装で愛想良く挨拶をするのが重要です。手土産を持参するのも良いでしょう。結局、売主も人間ですから好感を持った買主には率先して売却する傾向が強いです。また、買い付けの提出の際には、別紙にて、購入動機や購入後の物件の利用方法、近隣の住民とのお付き合いの考え等を書いて送るのも良いでしょう。"
          },
          "s020105": {
            "name": "・事故物件（自殺他殺放火）を知る方法は？",
            "img": "category_thumb_s000.png",
            "description": "大島てる等の専用サイトを使うのも良いですが、マンションであれば管理人や管理会社や住民に聞き込みしても有用な情報が聞けるケースも多いです。戸建てについても、手土産を持って町内会の役員や、近隣の住民に聞き込みするのも良いでしょう。"
          }
        }
      },
      "m0202": {
        "name": "売却全般（マンション・戸建て）",
        "img": "category_thumb_m00.png",
        "description": "物件を迅速に高く売るには、買主様の御内見の際には、部屋を綺麗に整理整頓し、愛想良く接するのが一番です。更に、電気を全部付けて、明るい印象を持って貰うのも重要です。売却に備えて、外壁の塗り直し等、ある程度のリフォーム費用を掛ける事も検討すると良いでしょう。",
        "small_categories": {
          "s020201": {
            "name": "・一般媒介or専任媒介or専属専任媒介、のどれが良い？",
            "img": "category_thumb_s000.png",
            "description": "当サイトでは一般媒介（非明示型）で多数の業者に媒介依頼する事を推奨しております。ネット上では（専属）専任媒介契約を推奨するケースが多いですが、それは不動産業者に都合が良い契約だからです。（専属）専任媒介契約は、物件の囲い込みにつながり易く高値売却が困難になります。"
          },
          "s020202": {
            "name": "・信頼できる売却仲介会社のポイントは？",
            "img": "category_thumb_s000.png",
            "description": "売買契約には売主と買主の両方を１社でつなぐ両手契約（手数料６％）と、売主と買主を元付け業者と客付け業者の２社で分け合って契約する片手契約（それぞれ手数料３％）が有ります。物件の囲い込みをしないで片手契約でも高値売却をしてくれる良心的な仲介会社と営業マンに依頼するのがポイントです。このトピックでは、その方法論を探って行きます。"
          },
          "s020203": {
            "name": "・近所の住民に知られずに売却する方法は？",
            "img": "category_thumb_s000.png",
            "description": "居住用物件の場合、近所の住民に知られずに物件の売却＆引っ越しの完了を希望される売主様も多いです。ネット掲載不可、店頭広告不可での営業活動に加えて、このトピックでは、どうすれば上記の目的をより良く完了できるか方法論を考えていきましょう。"
          },
          "s020204": {
            "name": "・買主の内見の際に注意するべきポイントは？",
            "img": "category_thumb_s000.png",
            "description": "部屋を綺麗に整理整頓し、愛想良く接するのに加えて、日中の日当たりの良い時間帯を指定し、又は、天気予報で天気の良い日を指定するのが重要です。犬や猫を飼っている場合には、一時的にペットホテルに預けるのも良いでしょう。"
          }
        }
      },
      "m0203": {
        "name": "マンション売却",
        "img": "category_thumb_m00.png",
        "description": "マンションは管理が命です。管理状態が良好である事を買主様に上手くアピール出来るかが、高値での早期売却の近道です。施工会社がブランドが有る場合には、そこをアピールするのも良いでしょう。",
        "small_categories": {
          "s020301": {
            "name": "・重要事項調査報告書について。",
            "img": "category_thumb_s000.png",
            "description": "重要事項調査報告書とは、マンションの重要事項（修繕積立金の積立額、大規模修繕記録、中小規模修繕記録、管理組合のメンバー等）について、管理会社が発行する書類です。通常は媒介依頼を受けた仲介会社が取得する形になりますが、非常に重要な情報ですので、売主様が取るのも良いでしょう。"
          },
          "s020302": {
            "name": "・相場よりも高い管理費＆修繕積立金の物件売却について。",
            "img": "category_thumb_s000.png",
            "description": "時々、相場よりも異常に高い管理費＆修繕積立金のマンションが有り、売却の支障になるケースが有ります。例えば、昭和６２年築の物件でバブル当時の管理費＆修繕積立金が、現在でも維持されている物件も存在します。このトピックでは、その対応策を探って行きます。"
          },
          "s020303": {
            "name": "・再建築不可のマンションや、既存不適格のマンションの売却について。",
            "img": "category_thumb_s000.png",
            "description": "一部のマンションですが、接道部分が管理会社の所有になって居たり、接道部分を第３者に買われていたりして再建築が出来ないマンションが存在します。また、建てた当時は建蔽率容積率を守った物件でも、その後の用途地域の変更で同じ規模のマンションを建てられないマンションも有ります。この場合は、どうすれば良いのでしょうか？"
          }
        }
      },
      "m0204": {
        "name": "マンション購入",
        "img": "category_thumb_m00.png",
        "description": "",
        "small_categories": {
          "s020401": {
            "name": "・管理会社の良い悪いを見極めるポイントは？",
            "img": "category_thumb_s000.png",
            "description": "大手管理会社の管理は、修繕積立金が横領される可能性が無い点と、しっかりした大規模修繕計画が有る点で安心できますが、物件の価格も管理費用も高めです。中小管理会社の物件の管理状態は、玉石混交です。"
          },
          "s020402": {
            "name": "・修繕積立金の積立額を調べる方法は？",
            "img": "category_thumb_s000.png",
            "description": "重要事項調査報告書を取得して調べる事になります。物件の売却を担当している不動産会社に聞けば教えてくれるはずです。"
          },
          "s020403": {
            "name": "・住民の仲が良い悪いを知る方法は？",
            "img": "category_thumb_s000.png",
            "description": "マンションの現地に行き、管理人や通りすがりの住民に聞き込みをするのが一番です。たいてい、おしゃべり好きな住民が居て、聞いていない事まで話して下さる方が居るものです。ネットでマンション名を検索してみても良いでしょう。"
          },
          "s020404": {
            "name": "・駐車場は、平置きor機械式のどちらのマンションが良い？",
            "img": "category_thumb_s000.png",
            "description": "過去の一時期、マンション建設時に、機械式駐車場の設置が流行った時期が有りましたが、使い勝手の悪さと管理費の高さで最近は減ってきています。購入する際は実際に車庫入れさせて頂いて、使い勝手を確認するべきでしょう。"
          }
        }
      },
      "m0205": {
        "name": "戸建ての新築or購入or売却",
        "img": "category_thumb_m00.png",
        "description": "",
        "small_categories": {
          "s020501": {
            "name": "・建蔽率容積率オーバー中古物件を売却購入するポイントは？",
            "img": "category_thumb_s000.png",
            "description": "特に、東京都・大阪府等の大都市圏の戸建てですが、建蔽率容積率オーバーの中古物件は極めて多いです。銀行では、通常の住宅ローンは使えないケースも多く、系列のノンバンクを利用する等、色々と工夫が必要になります。このトピックでは、その対応策を探って行きます。"
          },
          "s020502": {
            "name": "・プロパンガスor都市ガスどちらが良い？",
            "img": "category_thumb_s000.png",
            "description": "都心から外れた郊外では、プロパンガスの地域も多いのが現状です。プロパンは都市ガスよりも料金が高いケースが多いですが、ガス給湯器が壊れた場合に、料金を負担してくれる場合もあり、一概に不利とは言えません。プロパンガスの供給会社に電話して状況を聞いてみましょう。"
          },
          "s020503": {
            "name": "・木造or軽量鉄骨or重量鉄骨or鉄筋（ＲＣ）or鉄骨鉄筋（ＳＲＣ）の長所短所は？",
            "img": "category_thumb_s000.png",
            "description": "単純に、建築費用＆強度＆耐用年数＆施工期間が、木造＜軽量鉄骨＜重量鉄骨＜鉄筋（ＲＣ）＜鉄骨鉄筋（ＳＲＣ）という感じです。投資物件を建てる際は、ＲＣで建蔽率容積率を目一杯に建てるよりも、軽量鉄骨で余裕を持って建てる方が投資効率が良い場合もあり、一概にどの工法が良いかは判別しにくいので、複数の見積もりを比較し検討するのが良いでしょう。"
          },
          "s020504": {
            "name": "・旭化成の鉄骨ＡＬＣの長所短所は？",
            "img": "category_thumb_s000.png",
            "description": "賃貸集合住宅に多く利用されているのが、旭化成の鉄骨ＡＬＣになります。鉄骨で安価ながら鉄筋（ＲＣ）に準ずる強度と防音性、保温性が有り広く利用されています。このトピックでは、メリットとデメリットを探って行きます。"
          },
          "s020505": {
            "name": "・公簿売買or確定測量図での売買の長所短所は？",
            "img": "category_thumb_s000.png",
            "description": "公簿売買は登記簿の面積を基に売買する事であり、確定測量図での売買は土地家屋調査士の実測に基づいて売買する事です。確定測量図での売買の方が良いと思われがちですが、過去にトラブルが無いのに境界測定で隣人と揉めて「寝た子を起こす」可能性が有り、慎重に選択した方が良いでしょう。どちらでの売買が良いか、このトピックでは具体例に基づいて議論して行きます。"
          },
          "s020506": {
            "name": "・官民の境界確定で気を付けるべきポイントは？",
            "img": "category_thumb_s000.png",
            "description": "官民（公道と私有地）の境界確定についての注意点をこのトピックでは探って行きます。基本的には、熟練の土地家屋調査士に任せるのが良いでしょう。"
          },
          "s020507": {
            "name": "・民民の境界確定で気を付けるべきポイントは？",
            "img": "category_thumb_s000.png",
            "description": "民民（私有地と私有地）の境界確定は、隣人との対応がカギになります。熟練の土地家屋調査士に対応を全て任すのがベストな選択でしょう。隣人への話の切り出し方やトラブルへの対応まで熟練の土地家屋調査士は精通されておられます。"
          },
          "s020508": {
            "name": "・（計画決定or事業決定されている）都市計画道路の予定地に建っている戸建ての購入は止めるべきでしょうか？",
            "img": "category_thumb_s000.png",
            "description": "開発の流れは、計画決定→事業決定→道路開通、になります。「計画決定→事業決定」まで通常５０～１００年掛かり、都市計画道路の予定地に建っている戸建ても普通に売買されているのが現実です。　「事業決定→道路開通」までは１０年程度であり売買に大きな影響をもたらします。事業決定が決まった物件の決定は慎重に行うべきですこのトピックでは具体例に基づいて議論して行きます。"
          }
        }
      },
      "m0206": {
        "name": "物件を買いたい方の個別物件の相談コーナー",
        "img": "category_thumb_m00.png",
        "description": "",
        "small_categories": {
          "s020601": {
            "name": "・購入希望物件のリンク先or図面を貼って質問して下されば、不動産業者や、専門家や実務家がアドバイス致します。",
            "img": "category_thumb_s000.png",
            "description": "希望物件のリンク先or図面を貼って質問して下されば、不動産業者や、専門家や実務家がアドバイス致します。"
          }
        }
      },
      "m0207": {
        "name": "物件を売りたい方の個別物件の相談コーナー",
        "img": "category_thumb_m00.png",
        "description": "",
        "small_categories": {
          "s020701": {
            "name": "・現在売却中の売却希望物件のリンク先or図面を貼って質問して下されば、不動産業者や、専門家や実務家がアドバイス致します。",
            "img": "category_thumb_s000.png",
            "description": "希望物件のリンク先or図面を貼って質問して下されば、不動産業者や、専門家や実務家がアドバイス致します。"
          }
        }
      }
    },
    "deploy_flag":0
  },
  "l03": {
    "name": "住宅ローン",
    "icon": "category_icon03.png",
    "description": "低金利の現在、住宅ローンを組むのには絶好の機会と言えるでしょう。融資額や金利は、申込者の用意可能な頭金の額・勤務先・勤続年数・年齢に加えて、物件の資産価値を加えて、総合的に判断されます。このトピックでは、いかに低金利で有利なローンを引き出すかを研究していきます。",
    "middle_categories": {
      "m0301": {
        "name": "住宅ローン全般",
        "img": "category_thumb_0301.jpg",
        "description": "　このトピックでは住宅ローン全般について取り扱います。",
        "small_categories": {
          "s030101": {
            "name": "住宅ローンの事前申し込みに必要な書類は？",
            "img": "category_thumb_s000.png",
            "description": "ローン事前申し込みの必要書類は、基本的に下記の通りです。源泉徴収票or個人の確定申告書の控え３年分のコピー・免許証のコピーor国民健康保険証のコピー・認印・現在、お住まいになっているマンション/アパートの賃貸契約書のコピー・銀行の通帳のコピー。"
          },
          "s030102": {
            "name": "不動産の、現金一括払い買いと、ローンでの購入は、どちらが有利？",
            "img": "category_thumb_s000.png",
            "description": "不動産を購入出来る現金が有る場合でローンを組まずに物件を買える場合に、あえてローンを組む必要は有りますか？という質問が有りますが、現在の住宅ローンの歴史的な低金利を考えれば、将来的に教育資金や株式投資資金、自動車購入資金として現金を残しておき、将来必要な資金を住宅ローンで借入するのも賢い選択です。教育ローンや自動車ローンより、住宅ローンの方が低金利ですから。"
          },
          "s030103": {
            "name": "ローンを組むのは大手or条件の良い中小金融機関？",
            "img": "category_thumb_s000.png",
            "description": "大手銀行の金利は高く、中小金融機関の金利は安い傾向が有りますが、一概に言えないので相見積もりを取って決定するのが良いでしょう。金融機関それぞれに個性が有り、例えば、建物の法定耐用年数より長く融資する金融機関も有れば、短く融資する金融機関も有ります。金融機関の個性を把握するのが好条件を引き出すコツです。"
          },
          "s030104": {
            "name": "ローンの事前審査と本審査の期間は？",
            "img": "category_thumb_s000.png",
            "description": "通常、ローン事前審査を銀行に提出して仮審査結果が出るのは１週間程度掛かりますが、個人の属性（勤務先や頭金額）により長くなる可能性も有ります。売買契約後のローンの本審査の申し込みから本審査の結果が出る期間は２週間程度になります。本審査に落ちる可能性は３０件に１件程度であり、理由は様々です。"
          },
          "s030105": {
            "name": "物件を買うのに必要な金額（頭金）は？",
            "img": "category_thumb_s000.png",
            "description": "通常、購入価格の１７％が目安ですが、物件の資産価値、購入者様の勤務先や年収によっては頭金０円でローンを組める可能性も有るので、不動産業者や銀行に相談してみましょう。"
          },
          "s030106": {
            "name": "その他、ローンの審査に影響する要因は何が有りますか？",
            "img": "category_thumb_s000.png",
            "description": "ローンの事前審査＆本審査の際に、銀行の融資担当者と面談する際には、スーツ等のフォーマルな服装が良いでしょう。また、融資担当者に対する対応も、誠実で丁寧な対応を心掛けましょう。審査が通るか通らないかは、この部分で決まるケースも多いです。この事項では、このカタログスペックに出ない部分の、融資決定要因を語り合いましょう。"
          }
        }
      },
      "m0302": {
        "name": "ローンを組むのに必要な雇用条件（正社員等）は？",
        "img": "category_thumb_0302.jpg",
        "description": "　基本は公務員や民間企業の正社員が対象になりますが、不動産ドットコムでは、派遣社員や自営業、フリーター様のローン希望者様もローンが組めるように頑張って運営を進めて行きたいと考えております。<br>　ローン希望者様の、年齢・年収・職種・勤続年数・共同担保になりそうな親族の所有物件等の条件を可能な限度で相談下されば、どの程度のローンが組めるか、個別に回答させて頂きますね。",
        "small_categories": {
          "s030201": {
            "name": "公務員ですが、どの程度のローンが組めますか？ローン申し込みの必要書類は？",
            "img": "category_thumb_s000.png",
            "description": "金融機関の、公務員への融資は積極的ですが、融資条件に差異が有りますので有利な融資条件を勝ち取るための方法論を、このトピックでは扱って参ります。ローン事前申し込みの必要書類は、下記の通りです。・源泉徴収表の控え３年分のコピー・免許証のコピーor社会保険証のコピー・認印・現在、お住まいになっているマンション/アパートの賃貸契約書のコピー。"
          },
          "s030202": {
            "name": "民間企業の正社員（上場企業）ですが、どの程度のローンが組めますか？ローン申し込みの必要書類は？",
            "img": "category_thumb_s000.png",
            "description": "金融機関の、民間企業の正社員（上場企業）への融資は積極的ですが、融資条件に差異が有りますので有利な融資条件を勝ち取るための方法論を、このトピックでは扱って参ります。ローン事前申し込みの必要書類は、下記の通りです。・源泉徴収表の控え３年分のコピー・免許証のコピーor社会保険証のコピー・認印・現在、お住まいになっているマンション/アパートの賃貸契約書のコピー。"
          },
          "s030203": {
            "name": "民間企業の正社員（非上場企業）ですが、どの程度のローンが組めますか？ローン申し込みの必要書類は？",
            "img": "category_thumb_s000.png",
            "description": "金融機関の、民間企業の正社員（非上場企業）への融資は、基本的に積極的ですが、勤続年数や年収によって融資条件に差異が有りますので有利な融資条件を勝ち取るための方法論を、このトピックでは扱って参ります。ローン事前申し込みの必要書類は、下記の通りです。・源泉徴収表の控え３年分のコピー・免許証のコピーor社会保険証のコピー・認印・現在、お住まいになっているマンション/アパートの賃貸契約書のコピー。"
          },
          "s030204": {
            "name": "派遣社員（契約社員）ですが、どの程度のローンが組めますか？ローン申し込みの必要書類は？",
            "img": "category_thumb_s000.png",
            "description": "金融機関の、派遣社員への融資は、基本的に難しいケースが多いですが、頭金の額や勤続年数や年収によって融資を勝ち取れるケースも有りますので、その為の方法論を、このトピックでは扱って参ります。ローン事前申し込みの必要書類は、下記の通りです。・源泉徴収表の控え３年分のコピー・免許証のコピーor社会保険証のコピー・認印・現在、お住まいになっているマンション/アパートの賃貸契約書のコピー。"
          },
          "s030205": {
            "name": "自営業者（個人）ですが、どの程度のローンが組めますか？ローン申し込みの必要書類は？",
            "img": "category_thumb_s000.png",
            "description": "金融機関の、自営業者（個人）への融資は、基本的に難しいケースが多いですが、頭金の額や勤続年数や年収によって融資を勝ち取れるケースも有りますので、その為の方法論を、このトピックでは扱って参ります。ローン事前申し込みの必要書類は、下記の通りです。・確定申告書の控え３年分のコピー・免許証のコピーor国民健康保険証のコピー・認印・現在、お住まいになっているマンション/アパートの賃貸契約書のコピー・銀行の通帳のコピー。"
          },
          "s030206": {
            "name": "会社経営者（法人）ですが、どの程度のローンが組めますか？ローン申し込みの必要書類は？",
            "img": "category_thumb_s000.png",
            "description": "金融機関の、会社経営者（法人）への融資姿勢は、頭金の額や勤続年数や年収によって個別の案件ごとに精査して判断する形になります。融資を勝ち取る方法論を、このトピックでは扱って参ります。ローン事前申し込みの必要書類は、下記の通りです。・会社の決算書３期分のコピー・源泉徴収票or個人の確定申告書の控え３年分のコピー・免許証のコピーor国民健康保険証のコピー・認印・現在、お住まいになっているマンション/アパートの賃貸契約書のコピー・銀行の通帳のコピー。"
          },
          "s030207": {
            "name": "株式（仮想通貨）ＦＸトレーダーですが、どの程度のローンが組めますか？ローン申し込みの必要書類は？",
            "img": "category_thumb_s000.png",
            "description": "金融機関の、株式ＦＸ（仮想通貨）トレーダーへの融資姿勢は、頭金の額や物件の担保評価によって個別の案件ごとに精査して判断する形になります。融資を勝ち取る方法論を、このトピックでは扱って参ります。ローン事前申し込みの必要書類は、下記の通りです。・個人の確定申告書の控え３年分のコピー・免許証のコピーor国民健康保険証のコピー・認印・現在、お住まいになっているマンション/アパートの賃貸契約書のコピー・銀行の通帳のコピー。"
          },
          "s030208": {
            "name": "お笑い芸人（芸能人）ですが、どの程度のローンが組めますか？ローン申し込みの必要書類は？",
            "img": "category_thumb_s000.png",
            "description": "金融機関の、お笑い芸人（芸能人）への融資姿勢は、頭金の額や物件の担保評価によって個別の案件ごとに精査して判断する形になります。融資を勝ち取る方法論を、このトピックでは扱って参ります。ローン事前申し込みの必要書類は、下記の通りです。・個人の確定申告書の控え３年分のコピー・免許証のコピーor国民健康保険証のコピー・認印・現在、お住まいになっているマンション/アパートの賃貸契約書のコピー・銀行の通帳のコピー。"
          },
          "s030209": {
            "name": "フリーターですが、どの程度のローンが組めますか？ローン申し込みの必要書類は？",
            "img": "category_thumb_s000.png",
            "description": "金融機関の、フリーターへの融資姿勢は、年齢・所有資格・頭金の額や物件の担保評価によって個別の案件ごとに精査して判断する形になります。融資を勝ち取る方法論を、このトピックでは扱って参ります。ローン事前申し込みの必要書類は、下記の通りです。・個人の確定申告書の控え３年分のコピー・免許証のコピーor国民健康保険証のコピー・認印・現在、お住まいになっているマンション/アパートの賃貸契約書のコピー・銀行の通帳のコピー。"
          }
        }
      },
      "m0303": {
        "name": "住宅ローンの個別の難解な案件の研究",
        "img": "category_thumb_0303.jpg",
        "description": "　通常の住宅ローンを組む上において、難易度の高い物件のＱ＆Ａをこのトピックでは扱う事にします。<br>　通常の住宅ローン融資では滅多に出会わないレアケースの案件の議論を致しましょう。",
        "small_categories": {
          "s030301": {
            "name": "建蔽率容積率オーバーの物件で住宅ローンを組む事は可能でしょうか？",
            "img": "category_thumb_s000.png",
            "description": "銀行や信金では、建蔽率容積率オーバー物件への融資は厳しい場合が多いですが、超過部分の程度により、超過部分を減額した上で融資審査が通る可能性が有ります。ノンバンクであれば、建蔽率容積率オーバーの物件でも審査に通る可能性は高いでしょう。"
          },
          "s030302": {
            "name": "借地の戸建てでも、住宅ローンを組む事は可能ですか？",
            "img": "category_thumb_s000.png",
            "description": "新築戸建てと、中古戸建に分けて考えます。新築借地戸建てでは、無条件に住宅ローンが付く物件が多いですので販売業者に相談してみましょう。問題は中古借地戸建てですが、借地に抵当権は付けられませんので金融機関が融資を渋るケースが多い反面、立地が良いケースが多く悩ましい所です。借地部分を現金で用意するか、他の所有物件を共同抵当に入れて融資を受ける形になります。"
          },
          "s030303": {
            "name": "再建築不可の戸建てでも、住宅ローンを組む事は可能ですか？",
            "img": "category_thumb_s000.png",
            "description": "戸建てであれば2ｍ以上の接道、アパマン等の共同住宅であれば4ｍ以の接道が建物建設の必須条件になります。古い物件に多いですが、上記の接道幅を確保していない物件が再建築不可物件になり、通常は銀行融資は不可です。しかし、ノンバンクであれば融資を受けられる可能性が有るので相談してみましょう。"
          },
          "s030304": {
            "name": "勤続５年の看護師で正社員ですが、奨学金の残債が300万円残っていますが住宅ローンは組めますか？",
            "img": "category_thumb_s000.png",
            "description": "年収から奨学金を引いた額で収入総額を計算して、その収入総額で組める範囲内であればローンは可能でしょう。この辺の計算式は、各金融機関によって違うので、直接、金融機関の融資担当者に聞いてみるのが良いでしょう。"
          },
          "s030305": {
            "name": "外国籍ですが、住宅ローンは組めますか？",
            "img": "category_thumb_s000.png",
            "description": "永住権を持っている外国籍の方で有れば、問題無く住宅ローンは組める場合が多いです。永住権を持っていない場合には、金融機関との個別の交渉になります。"
          },
          "s030306": {
            "name": "相続対策としてのアパートローンの御相談について。",
            "img": "category_thumb_030307.jpg",
            "description": "相続対策の住宅ローンの御相談について。"
          }
        }
      },
      "m0304": {
        "name": "事業用物件（店舗事務所）への物件購入の事業性ローン",
        "img": "category_thumb_0304.jpg",
        "description": "　個人であれば確定申告書3年分の内容と事業の将来性、頭金の額と保証人の属性、物件の担保評価の総合審査で融資の可否が確定します。<br>　法人であれば決算書3年分の内容と事業の将来性、頭金の額と、物件の担保評価の総合審査で融資の可否が確定します。<br>　加えて、金融機関との信頼関係や担当との人間関係で融資額は左右します。",
        "small_categories": {
          "s030401": {
            "name": "事業用物件（店舗事務所）全般についての注意事項は？",
            "img": "category_thumb_s000.png",
            "description": "事務所物件は賃貸に出した場合、居住用物件と比べて埋まりにくい特性が有り、より十分な返済計画が必要です。また、滞納されるケースが多く、厚めの資金や特殊な保証会社を使う必要が有り難易度は高いと言えます。"
          }
        }
      },
      "m0305": {
        "name": "不動産投資物件への事業性ローン",
        "img": "category_thumb_0305.jpg",
        "description": "　個人であれば確定申告書3年分の内容と事業の将来性、頭金の額と保証人の属性、物件の担保評価の総合審査で融資の可否が確定します。<br>　法人であれば決算書3年分の内容と事業の将来性、頭金の額と、物件の担保評価の総合審査で融資の可否が確定します。<br>　加えて、金融機関との信頼関係や担当との人間関係で融資額は左右します。不動産投資物件への融資は、法人や個人の属性に加えて、物件の担保評価が大きく融資額を左右しますので、購入者様の物件の目利き能力が重要になります。",
        "small_categories": {
          "s030501": {
            "name": "不動産投資物件全般についての注意事項は？",
            "img": "category_thumb_s000.png",
            "description": "不動産業者の言いなりで買わず、購入者の方でも知識武装した上で購入するのが重要です。誠実で実直そうな営業マンに最悪な新築物件を買わされる悲劇が後を絶ちません。物件の立地や積算価格について研究を深めて、不動産営業以上の知識を身に着けましょう。"
          },
          "s030502": {
            "name": "投資用の新築マンション購入の注意点は？",
            "img": "category_thumb_s000.png",
            "description": "基本的に当サイトでは、新築マンション投資はお勧めは致しません。いわゆる新築プレミアム費用（広告費・営業費等）が加算されており、投資物件としては余程、好立地か投げ売り価格で買わないと割に合わないでしょう。居住用物件で新築で自分で住むならともかく、賃貸物件で新築である必要性は余り有りません。"
          },
          "s030503": {
            "name": "中古マンション購入の注意点は？",
            "img": "category_thumb_s000.png",
            "description": "当サイトでは、中古マンション投資は推奨しております。新築プレミアムが落ちて、販売価格と積算価格が同一になった中古物件は投資対象として最適です。このトピックでは、良好な中古物件の条件を探って行きます。"
          },
          "s030504": {
            "name": "一棟アパート（木造）購入の注意点は？",
            "img": "category_thumb_s000.png",
            "description": "新築アパート投資は避け、出来るだけ中古アパート投資を目指した方が良いでしょう。立地が良く、築年の割に建物の状態が良い中古を買い叩いて買うのが良いです。立地が良ければ建物が古くなっても建て直して新築で再び運用する事も可能です。建物部分の減価償却も多く取れます。"
          },
          "s030505": {
            "name": "一棟マンション（ＲＣ）購入の注意点は？",
            "img": "category_thumb_s000.png",
            "description": "地方の物件を買うと建物部分の減価償却が大きくなり節税に役立ちます。都心に近い物件を買うと家賃が高く空室率も低いですが、減価償却が低くなるジレンマが有ります。とは言え、地震に強く数十年に渡り収益をもたらすＲＣ物件は、不動産投資の頂点と言えるでしょう。"
          },
          "s030506": {
            "name": "事務所＆店舗物件への投資の注意点は？",
            "img": "category_thumb_s000.png",
            "description": "どちらも立地が重要で、不況時には居住用物件と比較して需要が減る傾向が強いです。賃貸に回した時に滞納が多いので、借主の属性（財務体質や事業内容）を見極めるのが重要です。また、保証会社や保証人についても調査する必要が有ります。"
          }
        }
      },
      "m0306": {
        "name": "住宅ローンを借りたい方の個別物件の相談コーナー",
        "img": "category_thumb_0306.jpg",
        "description": "　こちらでは、実際に購入希望者が購入を検討されている物件を提示して下されば、頭金の金額や職業、年齢を考慮して組める住宅ローンの金額や期間、金利等を専門家が回答致します。複数の金融機関からの融資条件の提案も期待出来ます。",
        "small_categories": {
          "s030601": {
            "name": "住宅ローンの専門家や実務家がアドバイス頂けますか？",
            "img": "category_thumb_s000.png",
            "description": "購入希望物件のリンク先or図面を貼って質問して下されば、住宅ローンの専門家や実務家がアドバイス致します。"
          }
        }
      }
    },
    "deploy_flag":1
  },
  "l04": {
    "name": "保険全般",
    "icon": "category_icon04.png",
    "description": "ここでは、不動産に関連する火災損害地震保険全般について掘り下げて行きます。特に、地震に起因する火災や津波による物損が多いので、地震発生後の保険の取り扱い等についての活発な質疑応答を期待します。",
    "middle_categories": {
      "m0401": {
        "name": "賃貸の火災（家財）保険について",
        "img": "category_thumb_m00.png",
        "description": "賃貸物件を借りる際に、必須となるのが火災保険です。相場も大体決まっておりますが、安く良い条件にて火災保険を利用できる方法論を追及して行きたいと思います。",
        "small_categories": {
          "s040101": {
            "name": "・賃貸の占有面積別の火災（家財）保険料金と、補償範囲の目安を教えて下さい。",
            "img": "category_thumb_s000.png",
            "description": "25㎡前後のアパマンで、保険料月15,000円前後にて、①家財（使用している家具）保障300万円、②借家人責任賠償（部屋の原状回復）、③個人賠償責任（隣人に対する補償）が相場です。"
          },
          "s040102": {
            "name": "・賃貸の火災保険全般の注意事項について。",
            "img": "category_thumb_s000.png",
            "description": "火災保険は客付けする不動産業者が契約している保険で強制加入されるケースが多いので、選択の余地はあまり無いですが、このトピックでは出来る範囲で改善する余地を探って参ります。"
          },
          "s040103": {
            "name": "・火災保険の契約期間中に引っ越しするのですが、新居先での物件に、保険を引き継ぐことは出来ますか？",
            "img": "category_thumb_s000.png",
            "description": "制度としては可能ですが、新居を管理している不動産業者との兼ね合いも有り、難しいのが現状です。このトピックでは、何とか保険を新居でも引き継げる方法論を探って行きます。"
          }
        }
      },
      "m0402": {
        "name": "大家向けの貸家全体の火災（施設賠償）保険について",
        "img": "category_thumb_m00.png",
        "description": "入居者が加入する個別の火災（家財）保険とは別に、大家さんが加入する建物全体の火災（＋施設賠償責任、＋家賃補償、＋家主費用）保険について語るトピックです。選択方法としては、ネットの見積もりサイトにて合い見積もりを取った上で、その条件を更にお付き合いの有る保険会社の営業に提示してみて、更に値切れるか交渉してみると良いでしょう。相場は有って無い様なものですので、出来る限り有利な条件を引き出せる方法を探って行きましょう。",
        "small_categories": {
          "s040201": {
            "name": "・貸家全体の占有面積別の火災保険料金と、補償範囲の目安を教えて下さい。",
            "img": "category_thumb_s000.png",
            "description": "占有面積200㎡前後のアパートで4～8万円程度ですが、築年・構造・オプションの追加等で金額は大きく変動するので、複数の保険会社から相見積もりを取って検討しましょう。"
          },
          "s040202": {
            "name": "・貸家全体賃貸の火災（＋施設賠償責任、＋家賃補償、＋家主費用）保険全般の注意事項について。",
            "img": "category_thumb_s000.png",
            "description": "正直、大家が火災（＋施設賠償責任、＋家賃補償、＋家主費用）保険を利用して保険会社から保険金を受け取るケースは稀です。利回りを高めて銀行への支払いを優先させる為にも、保険会社と交渉して保険料を値切り倒すのが重要です。"
          },
          "s040203": {
            "name": "・オプションの「施設賠償責任」とは何ですか？",
            "img": "category_thumb_s000.png",
            "description": "建物の施設や設備の不備により発生した損害を補償する保険です。壁が倒れたり、漏水による入居者への損害等を想定しています。"
          },
          "s040204": {
            "name": "・オプションの「家賃補償」とは何ですか？",
            "img": "category_thumb_s000.png",
            "description": "洪水や火災等の事件事故によって部屋が貸せなくなって家賃収入が途絶えた場合に保証してくれるのが家賃補償保険です。孤独死にも対応しているので、高齢者の入居が多い大家さんは検討した方が良いでしょう。"
          },
          "s040205": {
            "name": "・オプションの「家主費用」とは何ですか？",
            "img": "category_thumb_s000.png",
            "description": "別名「孤独死保険」で、家賃に加えて、掃除代金や原状回復費用、遺品整理代金も含まれますので、高齢者の入居が多い大家さんは検討した方が良いでしょう。"
          }
        }
      },
      "m0403": {
        "name": "地震保険について",
        "img": "category_thumb_m00.png",
        "description": "地震保険は、火災保険の50％までで、かつ、建物金額の50％、上限5000万円までしか保険金が出ないのと、補償1000万円に付き3万円強の保険料が必要なので、新築や築浅の木造で大地震が予想される地域の物件について加入を検討する形になります。地震に強い（Ｓ）ＲＣや重量鉄骨は加入不要の物件も多いと思われます。",
        "small_categories": {
          "s040301": {
            "name": "・貸家全体の占有面積別の地震保険料金と、補償範囲の目安を教えて下さい。",
            "img": "category_thumb_s000.png",
            "description": "建物金額に対して補償1000万円に付き約3万円強の保険料が必要になり、基本的に保険会社に保険金額に差異は無いそうです。津波被害も損害補償の範囲に含まれます。"
          },
          "s040302": {
            "name": "・貸家全体賃貸の地震保険全般の注意事項について。",
            "img": "category_thumb_s000.png",
            "description": "正直、加入必須という保険では有りませんが、木造で、残債無しの物件や、南海トラフ被害想定区域、関東大震災の被害想定区域では加入の検討をしても良いでしょう。"
          }
        }
      },
      "m0404": {
        "name": "不動産業者が保険を扱う際の注意点について",
        "img": "category_thumb_m00.png",
        "description": "通常、賃貸の火災（家財）保険を手掛けるケースが圧倒的に多いと思われますが、保険代理店を入れるケースと、不動産業者みずからが保険代理店に成る方法が有ります。保険代理店に成ると火災（家財）保険料金の約20％が手数料として頂けますので、賃貸管理をメインにされて居る不動産業者には必須ですが、売買メインの不動産業者は不要かもしれません。",
        "small_categories": {
          "s040401": {
            "name": "・不動産業者が保険代理店になる方法と資格を教えて下さい。",
            "img": "category_thumb_s000.png",
            "description": "まず、少額短期保険募集人試験に合格し、保険会社の代理店に応募し、研修を受けた上で保険代理店になります。火災（家財）保険料金の約20％が手数料として頂けます。"
          }
        }
      },
      "m0405": {
        "name": "物件に、保険を掛けたい方の個別物件の相談コーナー",
        "img": "category_thumb_m00.png",
        "description": "保険を掛けたい物件のリンク先or図面を貼って質問して下されば、不動産業者や、専門家や実務家がアドバイス致します。現時点で保険会社から提示されている補償範囲や金額も出来る範囲で記入お願い致します。",
        "small_categories": {
          "s040501": {
            "name": "・保険を掛けたい物件のリンク先or図面を貼って質問して下されば、保険会社や、専門家や実務家がアドバイス致します。",
            "img": "category_thumb_s000.png",
            "description": "保険を掛けたい物件のリンク先or図面を貼って質問して下されば、保険会社や、専門家や実務家がアドバイス致します。"
          }
        }
      }
    },
    "deploy_flag":0
  },
  "l05": {
    "name": "マンション管理全般",
    "icon": "category_icon05.png",
    "description": "マンションやアパートの資産価値の維持は管理が非常に重要です。特にマンションの大規模修繕計画や修繕積立金の額がチェックポイントです。大規模修繕が計画通りに実行されていないマンションは、すぐボロボロになります。大手管理会社は管理は良いのですが、管理費が高い傾向が有り、中小でも良心的な管理・修繕費で運営している管理会社の見極めがポイントです。",
    "middle_categories": {
      "m0501": {
        "name": "良い管理会社を選ぶポイント",
        "img": "category_thumb_m00.png",
        "description": "マンションの広さに対しての管理・修繕費の相場を見極めるのが重要です。数多くの図面を見ていると、マンションの専有面積に対する地域による管理・修繕費の相場が分かって来ますので比較すると良いでしょう。購入の段階で管理会社に「重要事項調査報告書」を交付して貰い、修繕積立金が適切に積み立てられているか確認を致しましょう。",
        "small_categories": {
          "s050101": {
            "name": "・「重要事項調査報告書」とは何ですか？",
            "img": "category_thumb_s000.png",
            "description": "管理会社がマンションの管理状態について記録を付けている報告書です。所有者や購入希望者は不動産業者を通じて手に入れる事が出来ます。大規模修繕計画や履歴、修繕積立金の額等、重要な情報を手に入れる事が出来、購入の検討にする資料です。"
          },
          "s050102": {
            "name": "・やはり、大手管理会社が良いですか？",
            "img": "category_thumb_s000.png",
            "description": "大手管理会社は管理は良いのですが、管理費が高い傾向が有り、割高感が否めません。特にバブル期に建てられたマンションは管理費がバブル期の相場に張り付いたままで有ったりして異常な高値だったりします。管理会社を変える事は困難ですので、マンション購入前に管理会社の管理姿勢を見極めて購入するのが重要です。"
          },
          "s050103": {
            "name": "・では、聞いた事も無い中小管理会社はどうですか？",
            "img": "category_thumb_s000.png",
            "description": "中小管理会社の評判は、玉石混交です。ネットで評判を調べるのは当然として、やはり重要事項調査報告書を取り寄せて、内容を精査するしか方法論は無いでしょう。物件の立地が良いが、管理会社が聞いた事も無い管理会社というケースは頻繁に有り、余りに評判が悪い場合には購入を見送る事も検討するべきです。"
          },
          "s050104": {
            "name": "・住民による自主管理のマンションはどうですか？",
            "img": "category_thumb_s000.png",
            "description": "築30年以上の古いマンションに良く有るケースです。自主管理のマンションの評判は、玉石混交です。管理組合により、適切な修繕計画が存在し修繕積立金が潤沢に有る物件が有る半面、管理組合長が修繕積立金を持ち逃げしたマンションも存在します。やはり重要事項調査報告書を取り寄せて、内容を精査するしか方法論は無いでしょう。"
          },"s050105": {
            "name": "・マンション住民ですが、管理会社を変更したいのですがどうすれば良いですか？",
            "img": "category_thumb_s000.png",
            "description": "余りに管理費＆修繕積立金の金額が相場と比較して高かったり、管理状態が悪い場合には、管理組合の議題として管理会社の変更を提案するべきです。議決権の半分以上＆出席者の半分以上の決議が取れれば、管理会社の変更が可能です。実務上では、複数の管理会社に見積もりを取り、新しい管理会社のスタッフの指示に従って手続きすれば良いでしょう。"
          },"s050106": {
            "name": "・独立系の管理会社から管理会社の変更を提案されました。",
            "img": "category_thumb_s000.png",
            "description": "簡単に言うと、既存の管理会社に取って代わって管理をしようとする、独立系の管理会社が存在します。大抵、既存の管理会社より大幅に安い提案書を持参して来ますが、安かろう悪かろうでは困ります。修繕計画を精査して、慎重に判断するべきです。"
          }
        }
      },
      "m0502": {
        "name": "トラブルメーカーの入居者に対する対応方法は？",
        "img": "category_thumb_m00.png",
        "description": "主に、管理会社と管理組合の仕事になります。まずは、口頭で注意→書面で警告→トラブル禁止の仮処分→慰謝料や損害賠償請求の裁判という流れになります。ポイントは、トラブルが起きる前の段階で予防する事です。法的手続きを取ると莫大な費用と時間が掛かり心的な疲労も甚大です。トラブルメーカーを入居させるなら、永遠に空室の方が良いという堅固な認識を持ちましょう。",
        "small_categories": {
          "s050201": {
            "name": "・住民のマンション内の楽器演奏等の騒音に対する対応策は？",
            "img": "category_thumb_s000.png",
            "description": "管理会社や大家から注意して貰うほか、最終的には慰謝料請求や建物明け渡し訴訟を提訴する方法論が有ります。法的手段を使用して解決するには、莫大な経費と時間が掛かるので、入居者の選定の段階でトラブルメーカーの入居を避けるべきです。"
          },
          "s050202": {
            "name": "・管理費修繕費を滞納する所有者に対する対応策は？",
            "img": "category_thumb_s000.png",
            "description": "民事裁判で確定判決を取り、債務名義を取得して強制執行という流れになります。財産が有れば良いのですが、無い場合には、マンションに対して強制執行を掛ける流れになります。"
          },
          "s050203": {
            "name": "・ペット禁止マンションでペットを飼育している住民に対する対応策は？",
            "img": "category_thumb_s000.png",
            "description": "管理会社や大家から注意して貰うほか、最終的には慰謝料請求や建物明け渡し訴訟を提訴する方法論が有ります。法的手段を使用して解決するには、莫大な経費と時間が掛かるので、入居者の選定の段階でトラブルメーカーの入居を避けるべきです。"
          },
          "s050204": {
            "name": "・精神疾患を患い、異常な言動を繰り返す住民に対する対応策は？",
            "img": "category_thumb_s000.png",
            "description": "住民が賃借人の場合には、建物明け渡し訴訟で対応出来ます。問題は、住民がマンションの所有者である場合です。刑事事件で対応する事も検討した方が良いかもしれませんが、仮に逮捕されても微罪ですので、２０日間拘留ですぐ出て来ます。民事で判決を取り、強制執行を繰り返す位しか方法論は無いでしょう。"
          },
          "s050205": {
            "name": "・反社勢力に属する住民や、反社会的な宗教団体の信者である住民に対する対応策は？",
            "img": "category_thumb_s000.png",
            "description": "原則、契約違反や、マンション管理規約違反で、建物明け渡し訴訟で対応出来ます。当然、本人たちは認めないでしょうから、写真や録音等で地道な証拠集めをしていくのが重要になるでしょう。"
          },
          "s050206": {
            "name": "・マンション敷地内に、勝手に駐車された放置車両に対する対応策は？",
            "img": "category_thumb_s000.png",
            "description": "自力救済として、勝手に車両を移動するのは所有者から器物損壊で提訴される可能性が有り、レッカー業者も判決を取らないと移動に協力しません。民事訴訟で判決を取り強制執行まで持ち込むのに約半年と莫大な訴訟費用が掛かります。そもそも不法駐車されない様に柵やポールを建てる等の対策を事前に行う事が重要です。→駐車場全般のＱ＆Ａも参照下さいませ。"
          }
        }
      },
      "m0503": {
        "name": "マンション管理全般のテーマです。",
        "img": "category_thumb_m00.png",
        "description": "",
        "small_categories": {
          "s050301": {
            "name": "・機械式駐車場を、平置き式駐車場に変更するには？",
            "img": "category_thumb_s000.png",
            "description": "機械式駐車場は使い勝手の悪さや高い維持費で評判が悪いケースが多く、機械式駐車場から平置き式駐車場に変更するケースは多いです。組合の決議を経て実行という流れになります。"
          },
          "s050302": {
            "name": "・オートロックで無いマンションを、リフォームでオートロックに変更するには？",
            "img": "category_thumb_s000.png",
            "description": "古いマンションで良く有るケースです。組合の決議を経て実行という流れになります。"
          },
          "s050303": {
            "name": "・管理会社に撤退して頂いて、自主管理に変更するには？",
            "img": "category_thumb_s000.png",
            "description": "余りに管理費＆修繕積立金の金額が相場と比較して高かったり、管理状態が悪い場合には、管理組合の議題として自主管理への変更を提案するべきです。議決権の半分以上＆出席者の半分以上の決議が取れれば、自主管理への変更が可能です。"
          },
          "s050304": {
            "name": "・築５０年以上のマンションを、建て替えるには？",
            "img": "category_thumb_s000.png",
            "description": "事実上、マンションの建て替えは不可能に近いです。マンションの建て替え決議4/5以上を取るのが至難なのに加えて、1戸当たり建替え負担金2,000万円程度を用意できる住民はなかなか居ません。このトピックでは、その可能性を探って行きたいと思います。"
          },
          "s050305": {
            "name": "・管理組合長が、管理費＆修繕積立金を持ち逃げしましたが、どのように対応すれば良いですか？",
            "img": "category_thumb_s000.png",
            "description": "非常に良く有るケースです。マンション購入前であれば、重要事項調査報告書にて修繕積立金の額が判明するので問題有りませんが、マンション購入後に持ち逃げされるとお手上げです。このトピックでは、持ち逃げを防止する方法論を探って行きましょう。"
          },
          "s050306": {
            "name": "・管理会社に支払う管理費の適正水準金額は？",
            "img": "category_thumb_s000.png",
            "description": "マンション管理費は、莫大な管理費が掛かるエレベーターの有無、建物が傷みやすい川沿いや海沿い山沿いか、下町か山手地域か、築年等により、同じ広さでも相場は大きく変わりますので、近隣のマンションとの取引事例比較法にて相場を調べるのが良いでしょう。"
          },
          "s050307": {
            "name": "・管理組合の役員就任を求められていますが、やりたくありません。どのように断れば良いですか？",
            "img": "category_thumb_s000.png",
            "description": "居住用物件の場合は、１年任期のローテーション制にして、居住者全員参加の形にして、自分の当番を出来る限り少なくする位しか負担を減らす方法は無いでしょう。ワンルーム等の投資用物件の場合は、連絡先を変えてしまえば強制される事も無いでしょう。が、その結果、管理会社に運営を丸投げする事になり、管理会社に良いように運営されてしまう危険性が有ります。"
          }
        }
      },
      "m0504": {
        "name": "管理会社に、物件管理を委託したい方の個別物件の相談コーナー",
        "img": "category_thumb_m00.png",
        "description": "管理会社に、管理を委託したい個別物件のリンク先or図面を貼って質問して下されば、管理会社や不動産業者や、専門家や実務家がアドバイス致します。現在の管理条件も記入お願い致します。",
        "small_categories": {
          "s050401": {
            "name": "・管理を委託したい個別物件のリンク先or図面を貼って質問して下されば、管理会社や不動産業者や、専門家や実務家がアドバイス致します。",
            "img": "category_thumb_s000.png",
            "description": "管理を委託したい個別物件のリンク先or図面を貼って質問して下されば、管理会社や不動産業者や、専門家や実務家がアドバイス致します。"
          }
        }
      }
    },
    "deploy_flag":0
  },
  "l06": {
    "name": "不動産投資（国内）",
    "icon": "category_icon06.png",
    "description": "",
    "middle_categories": {
      "m0601": {
        "name": "不動産投資全般のテーマについての質問です",
        "img": "category_thumb_m00.png",
        "description": "不動産投資はプロで失敗する事も有る投資ですので、一般の個人が不動産投資を始めるには、プロを言い負かせる程度の理論武装が必要です。市販の書籍は全て目を通したうえで、宅建も取った上で、信用できるメンター（指導者）に相談した上で始める位の努力はされた方が良いでしょう。分からない部分は、不動産ドットコムで相談して頂ければ出来る範囲で回答させて頂きます。",
        "small_categories": {
          "s060101": {
            "name": "・不動産投資のリスクとリターンの概略を教えて下さい。",
            "img": "category_thumb_s000.png",
            "description": "不動産投資はローリスク＆ミドルリターンです。利回り３～15％程度で、物件を現金購入すれば破産する可能性はゼロです。株式投資と良く比較されますが、決算内容によって元本が数百倍になる可能性が有る半面、倒産すれば価値はゼロです。退職金の運用等、安定した運用をするべき投資として最適と思われます。"
          },
          "s060102": {
            "name": "・不動産投資に向いている職業は？",
            "img": "category_thumb_s000.png",
            "description": "銀行融資を受けやすいという意味で、民間企業の正社員や公務員は最適ですが、経済的に余裕が有り、現金投資できる自営業や会社経営者にも良い投資です。フリーターや派遣社員の方は、株式投資等で資金を増やしてから不動産投資に取り組むと良いでしょう。"
          },
          "s060103": {
            "name": "・頭金はどの程度あれば良いですか？",
            "img": "category_thumb_s000.png",
            "description": "融資に属性が良いとされている大手民間企業の正社員や公務員でしたら、頭金０円で不動産投資を開始できる可能性も有りますが、普通のお仕事の普通の属性の方でしたら、購入金額の17％程度が最低必要金額の目安になります。担保にされる不動産の担保評価は銀行が決定しますので、購入される不動産にも金利や期間は左右されます。"
          },
          "s060104": {
            "name": "・不動産投資のコンサルタントは、どの程度、信用できますか？",
            "img": "category_thumb_s000.png",
            "description": "人によるとしか、言いようが有りません。まず、コンサルタント自身で不動産投資経験が無い人は論外でしょう。コンサルタントの所有物件を公開している方が良いでしょう。しかし、十分な不動産投資経験の有る人でも、糞物件を素人の個人投資家に買わそうとするコンサルも存在します。コンサルに負けない位の勉強をして理論武装するのが投資に勝つ鉄則です。"
          },
          "s060105": {
            "name": "・借地の投資物件はどうですか？",
            "img": "category_thumb_s000.png",
            "description": "借地投資は利回りが良いのですが、借地部分について銀行ローンが使えません。現金で借地を買えるのでしたら良いでしょう。旧借地借家法の方が、新借地借家法より借り手の条件が有利です。既存の不動産を共同抵当に入れて、ローンを組む方法も有りますが、この方法を実行出来るのは、銀行との付き合いの長いベテラン経験者になるでしょう。"
          },
          "s060106": {
            "name": "・入居者の客付けについて、専任・オープンの違いを教えて下さい。",
            "img": "category_thumb_s000.png",
            "description": "1社の不動産業者に客付けを依頼するのが専任、複数社の不動産業者に客付けを依頼するのがオープンです。専任は集金管理まで頼むケースが多いので、楽です。オープンは大家の自己集金が多いです。客付けの速さはオープンですので、専任で依頼して客付けが遅いようでしたらオープンに切り替えても良いでしょう。"
          },
          "s060107": {
            "name": "・大家自身で集金管理するのと、管理会社に集金管理委託するのと、どちらが良いですか？",
            "img": "category_thumb_s000.png",
            "description": "集金手数料は通常5％です。不動産ドットコムとしては、管理会社への集金管理委託をお勧め致します。滞納者に大家が恫喝されたり、暴行を受ける事も珍しく有りません。滞納する店子に大家が殺される事件も多いです。集金管理は不動産業者の得意分野ですから、任せた方が良いでしょう。"
          },
          "s060108": {
            "name": "・客付けの際の不動産業者に払う広告料についてアドバイスお願いします。",
            "img": "category_thumb_s000.png",
            "description": "地方や郊外では人口減少により、客付けが困難な地域が増えています。不動産業者も少ない来客者に自社の管理物件を優先的に当てて居ますが決まりにくいのが現実です。不動産業者は、広告料が多い物件から優先的に客を案内します。決まらなくてはどうしようもないですから、広告料については、他の大家の募集物件より1か月分多く出すのが良いでしょう。"
          },
          "s060109": {
            "name": "・不動産投資の対象地域は、どこが良いですか？",
            "img": "category_thumb_s000.png",
            "description": "人口が減少している現在、東京23区内、地方では政令指定都市の駅から徒歩10分圏内の物件に投資するのが無難でしょう。確実に客付け出来る物件で勝負するべきです。銀行ローンが通ったからと言って、運用が成功出来るとは限りません。"
          }
        }
      },
      "m0602": {
        "name": "一棟もの投資では、木造or軽量鉄骨or重量鉄骨or鉄筋（ＲＣ）or鉄骨鉄筋（ＳＲＣ）or旭化成ＡＬＣのどれが良い？",
        "img": "category_thumb_m00.png",
        "description": "建物の材質により耐用年数が異なり、銀行の融資期間となります。木造22年、鉄骨37年、ＲＣ47年となります。建築坪単価は、ＲＣ＞鉄骨＞木造、となります。出来る範囲で、経費が非常に掛かる、エレベーター無しの物件を建設または購入する方向性で検討するべきです。このトピックでは、材質別のメリットデメリットを語りましょう。",
        "small_categories": {
          "s060201": {
            "name": "・木造アパートのメリットデメリットは何ですか？",
            "img": "category_thumb_s000.png",
            "description": "メリットは、工期が短く、建築坪単価が安い事です。地盤もＲＣほど堅固な地盤で無くても良いので軟弱地盤でも建設可能です。水捌けの良い地域であれば、耐用年数と融資期間は22年ですが、築50年後程度までは貸せる可能性が有ります。"
          },
          "s060202": {
            "name": "・軽量鉄骨アパート（Ｓ造り）のメリットデメリットは何ですか？",
            "img": "category_thumb_s000.png",
            "description": "メリットは、ＲＣより工期が短く、建築坪単価が安い事です。解体撤去も容易ですので、都市計画の計画決定地域（道路予定地等）でも建設可能です。耐用年数と融資期間は27年ですが築50～100年後程度までは貸せる可能性が有ります。"
          },
          "s060203": {
            "name": "・重量鉄骨マンション（Ｓ造り）のメリットデメリットは何ですか？",
            "img": "category_thumb_s000.png",
            "description": "メリットは、ＲＣより工期が短く、建築坪単価が安い事です。解体撤去も容易ですので、都市計画の計画決定地域（道路予定地等）でも建設可能です。耐用年数と融資期間は34年ですが築50～100年後程度までは貸せる可能性が有ります。"
          },
          "s060204": {
            "name": "・鉄筋（ＲＣ）マンションのメリットデメリットは何ですか？",
            "img": "category_thumb_s000.png",
            "description": "メリットは、建築坪単価が高いですが、耐用年数が47年と長く取れ、原価償却期間が長い事です。解体撤去が困難ですので、都市計画の計画決定地域（道路予定地等）では建設不可になります。耐用年数と融資期間は47年と長く、築100年以上まで貸せる可能性が有ります。防音性・保温性が高く、居住の満足度が良いのも特徴です。"
          },
          "s060205": {
            "name": "小・鉄骨鉄筋（ＳＲＣ）マンションのメリットデメリットは何ですか？",
            "img": "category_thumb_s000.png",
            "description": "メリットは、建築坪単価が高いですが、耐用年数が47年と長く取れ、原価償却期間が長い事です。解体撤去が困難ですので、都市計画の計画決定地域（道路予定地等）では建設不可になります。耐用年数と融資期間は47年と長く、築100年以上まで貸せる可能性が有ります。防音性・保温性が高く、居住の満足度が良いのも特徴です。ＳＲＣのＲＣとの違いですが、耐震性に優れているので高層マンションに使用されるケースが多い程度で、大きな差異は無いようです。"
          },
          "s060206": {
            "name": "・旭化成ＡＬＣマンションのメリットデメリットは何ですか？",
            "img": "category_thumb_s000.png",
            "description": "賃貸住宅に多用されている旭化成ＡＬＣですが、鉄骨程度の建築坪単価に対して、ＲＣに準ずる防音性・保温性・耐久性が有り、入居者にも好評です。このトピックでは、旭化成ＡＬＣで建築検討中の利用者と、建設の経験者との間での情報交換をテーマと致します。"
          }
        }
      },
      "m0603": {
        "name": "（新築・中古）区分マンション投資で気を付けるべきポイントは？",
        "img": "category_thumb_m00.png",
        "description": "立地・日当たりの方向性・階数という一般的な項目に加えて、修繕履歴や大規模修繕予定、管理組合の修繕積立金の累計貯金額まで検討に含める必要が有ります。また、購入予定物件の近隣にトラブルメーカーが入居していないかを調べるのも重要です。",
        "small_categories": {
          "s060301": {
            "name": "・新築マンション投資はどうですか？",
            "img": "category_thumb_s000.png",
            "description": "新築マンション投資は、新築プレミアムが価格に上乗せされているので、不動産ドットコムでは基本的に勧めませんが、好景気に入る前に購入し、バブルの頂点で売り抜ける等の投資方法で有れば、大きな利益を出せる可能性が有ります。正直、投資対象としては難しい物件になります。"
          },
          "s060302": {
            "name": "・中古マンション投資はどうですか？",
            "img": "category_thumb_s000.png",
            "description": "中古マンション投資は、銀行の担保評価＝実勢価格に近く、利回りも高いので、不動産ドットコムではお勧めしたい投資対象です。特に、東京圏や大阪圏等の駅近くの好立地は、ほぼ全て中古物件ですので投資対象としては魅力的です。耐用年数と銀行の融資期間を考慮しつつ、投資対象を絞れば、良い投資となるでしょう。"
          },
          "s060303": {
            "name": "・タワーマンション投資はどうですか？",
            "img": "category_thumb_s000.png",
            "description": "通常のマンションと比較して、高層階と低層階の実勢価格差に比べて、固定資産税評価額が極端に低くなる為に、相続対策として極めて有効な投資対象でした。税制が変わり、2018年以降築物件の節税効果は減りますが、中古物件は依然有効であり、節税商品としては有望でしょう。"
          },
          "s060304": {
            "name": "・日当たりは、やはり東南向きが良いですか？",
            "img": "category_thumb_s000.png",
            "description": "やはり、日当たりは東南向き＆南向きがベストでしょう。また、東向きも人気は有り、前向きに検討する価値は有ります。西向きは嫌う人も多いですが、気にしない人も一定数居ます。北向きは、家賃がかなり安ければ入居する人も居ますが、カビが生えやすく、出来れば投資対象から外した方が良いでしょう。"
          },
          "s060305": {
            "name": "・付いていた方が良い設備は何ですか？",
            "img": "category_thumb_s000.png",
            "description": "バストイレ別は断然の競争力を持ちます。オートロックも競争力が高いので大きな優位性になります。最低限、この2つの設備が有れば客付けに困る事は無いでしょう。エアコンは最低条件ですが、wifi無料提供や、フローリング、浴室乾燥機等も競争力を高めます。"
          },
          "s060306": {
            "name": "・防水バンの仕様について。",
            "img": "category_thumb_s000.png",
            "description": "平成10年築位までは、２槽式洗濯機を基準に狭い防水バンが主流で、平成20年築位までは、乾燥機の付いて居ない全自動式洗濯機が主流でした。平成20～30年築はドラム式洗濯機を前提に防水バンが設置されて居ますが、数が少ないのが現状です。ドラム式洗濯機が置ける防水バンの物件は圧倒的な競争力を持ちますが、数が少ないのが難点です。"
          },
          "s060307": {
            "name": "・ワンルーム、1Ｋ、1ＬＤＫ、2ＬＤＫ以上、投資に適した間取りは何ですか？",
            "img": "category_thumb_s000.png",
            "description": "単純に投資利回りを考えるならワンルームですが、東京都心５区なら客付けに苦労しないと思われますが、駅遠物件や郊外では厳しいでしょう。やはり、核家族化の時代を考慮しても、出来れば広め（30㎡前後）の1Ｋ、1ＬＤＫで投資出来れば良いでしょう。2ＬＤＫ以上の物件は投資利回りが低いので投資物件としては不適格ですが、シェアハウス等に転換する等の方法論も有ります。"
          }
        }
      },
      "m0604": {
        "name": "（新築・中古）アパート一棟投資で気を付けるべきポイントは？",
        "img": "category_thumb_m00.png",
        "description": "アパートは防音性が低いので、交通量の多い道路や線路の近くだと客付けに苦労する可能性が有ります。駅近くで騒音の少ない立地の物件を探すのが最重要項目です。法定耐用年数が２２年と短く耐用年数切れの物件が大量に市場に放出されていますが、ローン付けが難しく、ローンの条件に注意するのがポイントです。",
        "small_categories": {
          "s060401": {
            "name": "・新築アパート投資と中古アパート投資の、どちらが良いですか？",
            "img": "category_thumb_s000.png",
            "description": "新築アパート投資はローン付けが容易で利回りが低く、中古アパート投資はローン付けが難しく利回りが高い、という相反関係が有ります。現金即買いが出来るのであれば中古物件が良いです。普通にローンを組むのであれば、新築プレミアムの取れた築2～5年程度の築浅物件を買えればベストですが、そういう物件はなかなか無いので、現金部分とローン条件との折り合いになります。"
          },
          "s060402": {
            "name": "・２階建てアパートと、３階建てアパートの、どちらが良いですか？",
            "img": "category_thumb_s000.png",
            "description": "収益性を考えれば当然３階建ての方が良いです。４階まで階段利用するのに抵抗有る人は多いですが、３階に居住するのに抵抗有る人は余り居ません。ただ、建蔽容積率の関係で２階建ての物件が多いのが現状です。"
          },
          "s060403": {
            "name": "・木造アパートと、軽量鉄骨アパートの、どちらが良いですか？",
            "img": "category_thumb_s000.png",
            "description": "木造耐用年数22年と軽量鉄骨（4ｍｍ）耐用年数27年の違いですが、外観において相当な大きな違いが有るようです。築27年時点で、木造が大きく劣化するのに対して、軽量鉄骨でも大きく劣化はしないのが現実です。出来れば新築でも中古でも木造よりは軽量鉄骨を選択した方が良いでしょう。"
          },
          "s060404": {
            "name": "・アパートの立地、日当たりについてアドバイスお願いします。",
            "img": "category_thumb_s000.png",
            "description": "建物全体のバルコニーが南・東南・東向きで有れば良いのですが、まれに西・北向きの物件も有り、そういう物件は客付けに苦労します。当たり前の話ですが、日当たりはリフォームでの修正が困難ですので、隣地に密接した建物の影等も含めて、現地調査が重要になります。"
          },
          "s060405": {
            "name": "・アパートのゴミ処理、管理についてアドバイスお願いします。",
            "img": "category_thumb_s000.png",
            "description": "良く働く、ゴミ処理担当の管理人を付けないと必ずトラブルになります。特に外国人の入居者が多い昨今では、必ずトラブル必至です。シルバー人材センター等に連絡を取って、元気な高齢者の管理人を紹介して頂くと良いでしょう。"
          }
        }
      },
      "m0605": {
        "name": "（新築・中古）マンション一棟投資で気を付けるべきポイントは？",
        "img": "category_thumb_m00.png",
        "description": "駅近くの好立地物件は、ほぼ例外無く、戦争直後から建った古い物件ばかりです。銀行の融資対象にならない古い物件は現金で買うしかないのが現状であるのに加えて、水回りが劣化して不具合が頻発しているケースが多いです。とは言え、新築物件は駅から遠い物件が多いのが現状です。立地と銀行の融資可能期間、建物の管理状態の総合的判断で購入を決断する事になります。",
        "small_categories": {
          "s060501": {
            "name": "・新築マンション一棟投資と中古マンション一棟投資の、どちらが良いですか？",
            "img": "category_thumb_s000.png",
            "description": "基本、新築物件は新築プレミアム価値が不動産価格に上乗せされているのでお勧めしません。中古で管理状態が良く、銀行の融資期間が残存し、立地が良い物件を選択するべきです。"
          },
          "s060502": {
            "name": "・エレベーター無し３階建てマンションと、エレベーター付き４階建てマンションの、どちらが良いですか？",
            "img": "category_thumb_s000.png",
            "description": "エレベーターの管理費用は収益を大きく圧迫します。ですので、出来れば3階までのエレベーター無しの物件を買った方が良いでしょう。エレベーター付きのマンション一棟でしたら、5階建てで総戸数50戸以上の中規模マンション以上とかであれば、購入を検討しても良いでしょう。"
          },
          "s060503": {
            "name": "・重量鉄骨マンションと、ＲＣマンションの、どちらが良いですか？",
            "img": "category_thumb_s000.png",
            "description": "重量鉄骨（4ｍｍ超）法定耐用年数34年、ＲＣ法定耐用年数47年を比較すると、建築坪単価に大差が無く、法定耐用年数（銀行の融資期間）と防音性を考えると、ＲＣを選択した方が良いでしょう。"
          },
          "s060504": {
            "name": "・ＳＲＣマンションと、ＲＣマンションの、どちらが良いですか？",
            "img": "category_thumb_s000.png",
            "description": "10階建て以上等の大規模物件にＳＲＣが利用されるケースが多かったのですが、現在は、耐震性・防音性共に大きな違いが無いようです。中古や新築物件購入時に差異を気にする必要性は無いでしょう。"
          },
          "s060505": {
            "name": "・総戸数が多いマンションと、総戸数が少ないマンションでは、どちらが投資対象として良いですか？",
            "img": "category_thumb_s000.png",
            "description": "特にエレベーターの管理費に莫大な費用が掛かる事を考えますと、10戸でエレベーター1基を負担するのと、100戸でエレベーター1基を負担するのでは、1戸当たりの負担額が10倍違います。間取りに問題無ければ、総戸数が多いほど投資対象としては優良でしょう。"
          },
          "s060506": {
            "name": "・建設会社の違いで設計の強度に差は有りますか？",
            "img": "category_thumb_s000.png",
            "description": "建築確認取って検査済み証を取った物件で有れば、強度に差異は無いでしょう。古い物件で良く有るのが、建築確認を取っていても検査済み証を取得していない物件です。この場合は、購入時に個別に建築士や不動産鑑定士に現地調査して貰うのが良いでしょう。"
          }
        }
      },
      "m0606": {
        "name": "国内投資用物件を買いたい方の個別物件の相談コーナー",
        "img": "category_thumb_m00.png",
        "description": "",
        "small_categories": {
          "s060601": {
            "name": "・購入希望物件のリンク先or図面を貼って質問して下されば、不動産業者や、専門家や実務家がアドバイス致します。",
            "img": "category_thumb_s000.png",
            "description": "購入希望物件のリンク先or図面を貼って質問して下されば、不動産業者や、専門家や実務家がアドバイス致します。"
          }
        }
      },
      "m0607": {
        "name": "国内投資用物件を売りたい方の個別物件の相談コーナー",
        "img": "category_thumb_m00.png",
        "description": "",
        "small_categories": {
          "s060601": {
            "name": "・現在売却中の売却希望物件のリンク先or図面を貼って質問して下されば、不動産業者や、専門家や実務家がアドバイス致します。",
            "img": "category_thumb_s000.png",
            "description": "現在売却中の売却希望物件のリンク先or図面を貼って質問して下されば、不動産業者や、専門家や実務家がアドバイス致します。"
          }
        }
    },
    "deploy_flag":0
  },
  "l07": {
    "name": "不動産投資（海外）",
    "icon": "category_icon07.png",
    "description": "不動産関連の法整備が日本程度に整っている国は、アメリカとヨーロッパ位で、その他の国の不動産投資はトラブルが頻発しています。特に、発展途上国のアジア圏では権利関係の法律の制定が不十分であり、外国人に土地の所有を認めていない国が多いのでハイリスクハイリターンの投資になります。",
    "middle_categories": {
      "m0701": {
        "name": "海外不動産投資全般のテーマについての質問です",
        "img": "category_thumb_m00.png",
        "description": "海外不動産投資を開始するに当たり、どの国に投資するべきかという投資対象国の選択が重要です。全ての条件を加味するとアメリカ投資が確実性が高いという結論になる投資家が多い様です。",
        "small_categories": {
          "s070101": {
            "name": "・国別のリスクとは？",
            "img": "category_thumb_s000.png",
            "description": "アメリカやヨーロッパは問題ありませんが、発展途上国のアジア圏では、現地の住民の所得水準が低く、現地の人に物件を貸すのが困難です。結局、現地に暮らす外国人に貸すことになりますが、大量に物件が供給されており、供給過剰なのが現実です。相当なリスクを覚悟の上で投資する必要が有るでしょう。"
          },
          "s070102": {
            "name": "・お勧めの国は、どこですか？",
            "img": "category_thumb_s000.png",
            "description": "不動産ドットコムとしては、不動産関連の法律の整備が整った、欧米の先進国への投資をお勧め致しますが、資金に余裕が有り、現地語に通じ滞在経験が有る等の経験が有れば、経済発展が期待できる途上国への投資も検討されてみても良いかもしれません。"
          },
          "s070103": {
            "name": "・アメリカ不動産投資は、どうですか？",
            "img": "category_thumb_s000.png",
            "description": "不動産ドットコムとしては、アメリカ不動産投資をお勧めしたいです。不動産関連の法整備が確立されているのに加えて、今後50年間は大幅な人口増加が見込め物件価格も上昇する可能性が極めて高いです。節税効果も極めて高いですが、投資利回りが高くないのが難点です。"
          },
          "s070104": {
            "name": "・イギリス＆フランス＆ドイツ不動産投資は、どうですか？",
            "img": "category_thumb_s000.png",
            "description": "不動産ドットコムとしては、ヨーロッパ不動産投資もお勧めしたいです。不動産関連の法整備が確立されているのに加えて、今後50年間は、人口の現状維持程度が見込め物件価格も現状を維持する可能性が高いです。節税効果も高いですが、投資利回りが低いのが難点です。"
          },
          "s070105": {
            "name": "・シンガポール不動産投資は、どうですか？",
            "img": "category_thumb_s000.png",
            "description": "アメリカ以上に利回りが低く、インカムゲイン投資には不適ですが、人口は増加する一方ですので、キャピタルゲイン狙いでは良いでしょう。バブル崩壊時の底値で買えれば最高の投資になりそうです。"
          },
          "s070106": {
            "name": "・マレーシア不動産投資は、どうですか？",
            "img": "category_thumb_s000.png",
            "description": "東南アジア全般に言える事ですが、為替の変動が激しいので為替差損を出す可能性が有るのと、現地人の所得水準が物件価格に追いつていないので購入エリアを絞らないと客付けに苦労しそうです。とは言え、人口は増加する一方ですので、バブル崩壊時の底値で買えれば最高の投資になりそうです。"
          },
          "s070107": {
            "name": "・香港不動産投資は、どうですか？",
            "img": "category_thumb_s000.png",
            "description": "とにかく利回りが低い、と言う事に尽きます。利回り2％で買って1％の水準で売却しキャピタルゲインを狙うような投資になってしまいますが、バブル崩壊時の底値で買えれば良い投資になりそうです。"
          },
          "s070108": {
            "name": "・台湾不動産投資は、どうですか？",
            "img": "category_thumb_s000.png",
            "description": "とにかく利回りが低い、と言う事に尽きます。利回り2％で買って1％の水準で売却しキャピタルゲインを狙うような投資になってしまいますが、バブル崩壊時の底値で買えれば良い投資になりそうです。"
          },
          "s070109": {
            "name": "・フィリピン不動産投資は、どうですか？",
            "img": "category_thumb_s000.png",
            "description": "正直、フィリピン不動産投資で検索掛けると悪評ばかりがヒットする状況です。大幅な人口増加とインフレは魅力的ですが、詐欺・為替変動、客付けの困難、管理会社の横領等、ネガティブな要因が多そうです。投資成功者からの回答をお待ちしております。"
          }
        }
      },
      "m0702": {
        "name": "海外投資用物件を買いたい方の個別物件の相談コーナー",
        "img": "category_thumb_m00.png",
        "description": "",
        "small_categories": {
          "s070201": {
            "name": "・購入希望物件のリンク先or図面を貼って質問して下されば、不動産業者や、専門家や実務家がアドバイス致します。",
            "img": "category_thumb_s000.png",
            "description": "購入希望物件のリンク先or図面を貼って質問して下されば、不動産業者や、専門家や実務家がアドバイス致します。"
          }
        }
        },
        "m0703": {
        "name": "海外投資用物件を売りたい方の個別物件の相談コーナー",
        "img": "category_thumb_m00.png",
        "description": "",
        "small_categories": {
          "s070301": {
            "name": "・現在売却中の売却希望物件のリンク先or図面を貼って下されば、不動産業者や、専門家や実務家がアドバイス致します。",
            "img": "category_thumb_s000.png",
            "description": "現在売却中の売却希望物件のリンク先or図面を貼って下されば、不動産業者や、専門家や実務家がアドバイス致します。"
          }
        }
      }
    },
    "deploy_flag":0
  },
  "l08": {
    "name": "リフォーム",
    "icon": "category_icon08.png",
    "description": "リフォーム全般のトピックです。",
    "middle_categories": {
      "m0801": {
        "name": "リフォーム全般のテーマについての質問です",
        "img": "category_thumb_m00.png",
        "description": "軽微な数万円程度のリフォームから、数百万円程度のフルスケルトンリフォームまで幅広いですが、手掛ける職人さん・施工業者により、見積金額や仕上がりも天地の差が有るのが現実です。不動産ドットコムでは、質問＆回答を通じて、いかに安く良い仕上がりを提供する職人さんやリフォーム業者を選択する方法論を提示して参ります。",
        "small_categories": {
          "s080101": {
            "name": "・良いリフォーム業者さんを選定するコツとは？",
            "img": "category_thumb_s000.png",
            "description": "該当するリフォーム工事のフレーズをgoogle画像検索して工事例を確認し、依頼したい工事を施工している業者に、電話やメールで合い見積もりを取るのが最良でしょう。また、不動産ドットコムの「リフォーム工事前→工事後の画像集」にて該当するリフォーム工事の画像を検索して、施工の上手そうな業者さんに連絡を取るのも良いでしょう。専門業者で無いと、例外無く、建築材料や専門工具の在庫が無いので問い合わせるだけ時間の浪費です。特に、水回り関連の業者は、大手業者で有っても、異常な高額料金や不良施行のトラブルが頻発していますので、ネットで事前に評判を調べるのが重要です。"
          },
          "s080102": {
            "name": "・職人気質の業者さんと上手く付き合うコツとは？",
            "img": "category_thumb_s000.png",
            "description": "一般論として、腕の良い職人さんは無口で人付き合いが苦手な傾向が有ります。正直、プライドが高い方も多いので、誠実に誠実に対応するのが重要です。客だからと言って押し付けるような口調で接すると、手抜き工事される可能性も有ります。じっくりと誠実に、希望するリフォームの概要を説明すれば、良い工事をして下さる可能性が高まるでしょう。"
          },
          "s080103": {
            "name": "・中古マンションをフルスケルトンリフォームをする際に、マンション内の解体は、専門の解体業者に任せた方が良い？それとも、リフォーム業者に解体も任せた方が良い？",
            "img": "category_thumb_s000.png",
            "description": "→土地上の古家屋の様な全て解体撤去する場合には、専門の解体業者を選択するべきですが、マンション内の解体は、再利用できるパーツと撤去するべきパーツの見極めが難しいので、リフォーム業者に解体も任せた方が良いケースが多い様です。もちろん、その辺の見極めが出来る解体業者で有れば依頼するのも良いでしょう。"
          }
        }
      },
      "m0802": {
        "name": "再建築不可物件＆既存不適格物件＆建蔽容積率オーバー物件のリフォームについての質問です",
        "img": "category_thumb_m00.png",
        "description": "再建築不可物件は新築で建て直す事が不可能ですし、既存不適格物件＆建蔽容積率オーバー物件の場合、新築で建て直すと、現状よりも大幅に小さい建築面積になる可能性が高いです。特に都市部では、このような物件が多いので、リフォームにて対応するのが良い案件も多く、個別具体的に解決策を提示出来ればと思います。",
        "small_categories": {
          "s080201": {
            "name": "・既存不適格物件で築50年の物件を立て替えたいのですが、建物を取り壊しての建て替えか、大規模リフォームかで悩んでいます。",
            "img": "category_thumb_s000.png",
            "description": "建設時は建蔽率80％容積率500％だったのに、後に建蔽率60％容積率300％に変更した地域等で建てられた物件を既存不適格物件と言い、再建築すると現時点の建蔽容積率でしか建てられません。建替えが良いか大規模リフォームが良いかは、個別案件によります。"
          }
        }
      },
      "m0803": {
        "name": "リフォーム工事前→工事後の画像集",
        "img": "category_thumb_m00.png",
        "description": "職人さんの腕の上手さを判断するのは、リフォーム工事前→工事後の画像を確認するのが一番です。画像を注視して、上手い業者さんに連絡を取りましょう。",
        "small_categories": {
          "s080301": {
            "name": "・リフォームの工事前→工事後の画像が見たいです。",
            "img": "category_thumb_s000.png",
            "description": "リフォームの工事前→工事後の画像が見れるトピックです。"
          }
        }
      },
      "m0804": {
        "name": "リフォーム希望者の個別物件の相談コーナー",
        "img": "category_thumb_m00.png",
        "description": "リフォーム希望物件のリンク先or写真、図面を貼って質問して下されば、リフォーム業者、不動産業者や、専門家や実務家がアドバイス、見積もりを提示致します。具体的に、どの様にリフォームをして欲しいのか、希望を詳細に書いて下さいませ。",
        "small_categories": {
          "s080401": {
            "name": "・リフォーム希望物件のリンク先or写真、図面を貼って質問して下されば、リフォーム業者、不動産業者や、専門家や実務家がアドバイス、見積もりを提示致します。",
            "img": "category_thumb_s000.png",
            "description": "リフォーム希望物件のリンク先or写真、図面を貼って質問して下されば、リフォーム業者、不動産業者や、専門家や実務家がアドバイス、見積もりを提示致します。"
          }
        }
      }
    },
    "deploy_flag":0
  },
   "l17": {
    "name": "ハウスクリーニング",
    "icon": "cleaning.png",
    "description": "",
    "middle_categories": {
      "m1701": {
        "name": "ハウスクリーニング全般のテーマについての質問です",
        "img": "category_thumb_m00.png",
        "description": "軽微な数千円程度のクリーニングから、数十万円程度のクリーニングまで幅広いですが、手掛ける職人さん・施工業者により、見積金額や仕上がりも天地の差が有るのが現実です。不動産ドットコムでは、質問＆回答を通じて、いかに安く良い仕上がりを提供する職人さんやハウスクリーニング業者さんを選択する方法論を提示して参ります。",
        "small_categories": {
          "s170101": {
            "name": "・良いハウスクリーニング業者さんを選定するコツとは？",
            "img": "category_thumb_s000.png",
            "description": "該当するハウスクリーニングのフレーズ（検索例：トイレ　ハウスクリーニング）をgoogle画像検索して工事例を確認し、依頼したいハウスクリーニングを施工している業者に、電話やメールで合い見積もりを取るのが最良でしょう。また、不動産ドットコムの「ハウスクリーニング工事前→工事後の画像集」にて該当するハウスクリーニング工事の画像を検索して、施工の上手そうな業者さんに連絡を取るのも良いでしょう。専門業者で無いと、例外無く、建築材料や専門工具の在庫が無いので問い合わせるだけ時間の浪費です。特に、水回り関連の業者は、大手業者で有っても、異常な高額料金や不良施行のトラブルが頻発していますので、ネットで事前に評判を調べるのが重要です。"
          }
        }
      },
      "m1702": {
        "name": "ハウスクリーニング工事前→工事後の画像集",
        "img": "category_thumb_m00.png",
        "description": "職人さんの腕の上手さを判断するのは、ハウスクリーニング前→ハウスクリーニング後の画像を確認するのが一番です。画像を注視して、上手い業者さんに連絡を取りましょう。",
        "small_categories": {
          "s170201": {
            "name": "・リフォームの工事前→工事後の画像が見たいです。",
            "img": "category_thumb_s000.png",
            "description": "リフォームの工事前→工事後の画像が見れるトピックです。"
          }
        }
      },
      "m1703": {
        "name": "ハウスクリーニング希望者の個別物件の相談コーナー",
        "img": "category_thumb_m00.png",
        "description": "・ハウスクリーニング希望物件のリンク先or写真、図面を貼って質問して下されば、ハウスクリーニング業者、不動産業者や、専門家や実務家がアドバイス、見積もりを提示致します。具体的に、どの様にハウスクリーニングをして欲しいのか、希望を詳細に書いて下さいませ。",
        "small_categories": {
          "s170301": {
            "name": "・ハウスクリーニング希望物件のリンク先or写真、図面を貼って質問して下されば、ハウスクリーニング業者、不動産業者や、専門家や実務家がアドバイス、見積もりを提示致します。",
            "img": "category_thumb_s000.png",
            "description": "ハウスクリーニング希望物件のリンク先or写真、図面を貼って質問して下されば、ハウスクリーニング業者、不動産業者や、専門家や実務家がアドバイス、見積もりを提示致します。"
          }
        }
      }
    },
    "deploy_flag":0
  },
  "l09": {
    "name": "競売",
    "icon": "category_icon09.png",
    "description": "競売は怖いという認識は昔のもので、現在は競売関連法規が整備された事も有り、昔ほどにはリスク無く競売物件を購入出来るようになりました。しかし、購入前に内見出来ないと言うリスクが有るにも関わらず、相場が過熱しており一般不動産売却物件よりも高い落札物件も多いです。このトピックでは、競売のリスクと入札価格の兼ね合いを探って行きます。",
    "middle_categories": {
      "m0901": {
        "name": "競売全般のテーマについての質問です",
        "img": "category_thumb_m00.png",
        "description": "競売全般の注意点を探って参ります。素人が落札する前提で基礎から質問回答を通じて、引っ掛かりそうな問題点を洗い出して行きます。",
        "small_categories": {
          "s090101": {
            "name": "・競売物件に不動産の素人が参加しても大丈夫ですか？",
            "img": "category_thumb_s000.png",
            "description": "マンションで有れば、戸建てと比較するとリスクは低いですが、内見出来ないリスクが存在します。戸建てに関しては、内見出来ないリスクに加えて、境界確定出来ないリスクも有ります。せめて、知り合いの売買担当の不動産業者に相談する事をお勧め致します。"
          },
          "s090102": {
            "name": "・実勢価格に比べて競売開始価格は異常に安いですが何故ですか？",
            "img": "category_thumb_s000.png",
            "description": "競売開始価格は、あくまでも最低入札金額で有り、落札価格とは異なります。競売開始価格で落札出来る可能性は、まず無いので、落札金額で競売の相場は判断するべきです。競売開始価格は不動産鑑定士が判断していますが、債権処理を迅速に進める為に、相場内での最低価格にて値付けしている為に安いのです。"
          },
          "s090103": {
            "name": "・占有屋とは何ですか？",
            "img": "category_thumb_s000.png",
            "description": "競売物件に居住し、落札者や落札希望者に対して不当に金銭を要求する人物です。三点セットを読んでみて、占有屋の可能性の有る人物が入居していると、退去までに内装を破壊される等の嫌がらせを受ける可能性が有ります。そのような物件は入札を避けた方が良いでしょう。"
          },
          "s090104": {
            "name": "・異常に賃料が安い賃借人が入居しているオーナーチェンジ物件を買っても大丈夫ですか？",
            "img": "category_thumb_s000.png",
            "description": "異常に安い家賃設定で入居者が居る競売物件も、占有屋の可能性が有ります。落札後に家賃増額請求訴訟等で対抗出来る可能性は有りますが、内装を破壊される可能性等のリスクが有るので入札は避けた方が良いでしょう。"
          },
          "s090105": {
            "name": "・入札前に内見したいのですが可能ですか？",
            "img": "category_thumb_s000.png",
            "description": "入札希望物件に行って、呼び鈴を鳴らして入居者と直接、内見交渉をしてみて承諾を頂ければ可能です。プロの不動産業者が入札する際には、この手順を必ず踏みます。ただ、入居者から暴行を受ける可能性等のリスクも有るので、慎重に判断するべきです。"
          },
          "s090106": {
            "name": "・競売の相場は、一般物件に比べて安い？",
            "img": "category_thumb_s000.png",
            "description": "内見出来ないリスクは大きいにも関わらず、一般不動産売却相場を超える金額で落札される物件も多いです。結局、相場を知らない素人が落札金額を高騰させているのが現状です。高く落札したら意味が全く無いので、金額の見極めが重要です。"
          },
          "s090107": {
            "name": "・競売物件を購入する際に、銀行ローンは使用出来ますか？",
            "img": "category_thumb_s000.png",
            "description": "通常は現金で落札し、銀行の担保評価で融資を受けるのが一般的です。現在は、残代金納付と同時に抵当権設定も可能ですので、理論上は住宅ローン利用も可能ですが専業で取り扱っている銀行は無いようです。が、不動産ドットコムでは銀行融資の可能性を探って行きます。"
          }
        }
      },
      "m0902": {
        "name": "競売物件落札希望者の個別物件の相談コーナー",
        "img": "category_thumb_m00.png",
        "description": "",
        "small_categories": {
          "s090201": {
            "name": "・落札希望の競売物件のリンク先or写真、図面を貼って質問して下されば、競売落札代行業者、不動産業者や、専門家や実務家がアドバイス、見積もりを提示致します。具体的に個別の競売物件が特定出来る様に、裁判所名、事件番号、落札希望金額等を詳細に書いて下さいませ。",
            "img": "category_thumb_s000.png",
            "description": "落札希望の競売物件のリンク先or写真、図面を貼って質問して下されば、競売落札代行業者、不動産業者や、専門家や実務家がアドバイス、見積もりを提示致します。具体的に個別の競売物件が特定出来る様に、裁判所名、事件番号、落札希望金額等を詳細に書いて下さいませ。"
          }
        }
      }
    },
    "deploy_flag":0
  },
  "l10": {
    "name": "不動産相続",
    "icon": "category_icon10.png",
    "description": "",
    "middle_categories": {
      "m1001": {
        "name": "不動産相続全般のテーマについての質問です",
        "img": "category_thumb_m00.png",
        "description": "国土が狭い日本人の財産の特徴として、財産の大半が不動産と言う人が多いでしょう。日本の税制が不動産所有者に圧倒的に有利になっているのが原因です。現金の財産も、逝去前に不動産に変えておけば相続税を大幅に圧縮出来ますし、負債を故意に作る事によって財産評価額を下げて、更に相続税を大幅に圧縮出来ます。この項目では、如何に効果的に相続税を合法的に節税できるかを質問回答を通じて探って行きます",
        "small_categories": {
          "s090101": {
            "name": "・両親が逝去した際の不動産相続のポイントは？",
            "img": "category_thumb_s000.png",
            "description": "まずは、税理士や税務署に相談をして、相続税がどの程度の額になるのかを正確に把握する事です。相続に備えて、境界確定＆確定測量（土地家屋調査士の仕事）を行い、不動産の価値を査定（不動産鑑定士の仕事）し、相続税（税理士の仕事）の計算をします。不動産資産が、相続税の基礎控除（3000万円＋相続人×600万円）を超える場合には、銀行や信用金庫から住宅ローンを組み、新たな賃貸用不動産を土地に建設（一級建築士の仕事）し、借り入れを増やす節税方法が有ります。ここまでが大まかなポイントになります。"
          },
          "s090102": {
            "name": "・大まかな不動産価格を自分で調べる方法は？",
            "img": "category_thumb_s000.png",
            "description": "戸建ての場合には、土地の路線価をhttp://www.rosenka.nta.go.jp/にて調べる事が可能です。建物価格は、建物購入時の価格を法定耐用年数（木造22年、鉄骨34年、ＲＣ47年）での残存期間で計算します。上記の土地と建物の合計が、大まかな不動産価格になります。具体的な質問を下されば、専門家が回答して下さります。"
          },
          "s090103": {
            "name": "・相続税の計算方法を教えて下さい。",
            "img": "category_thumb_s000.png",
            "description": "相続税の基礎控除（3000万円＋相続人×600万円）を超える場合には相続税が発生します。株＋現金部分の財産＋不動産を合計して、上記の基礎控除を超えるようなら、額に応じて10～55％掛かります。具体的な質問を下されば、専門家が回答して下さります。"
          },
          "s090104": {
            "name": "・不動産を遺言書で分割する場合は、特定遺贈と包括遺贈のどちらが良い？",
            "img": "category_thumb_s000.png",
            "description": "間違い無く、特定遺贈にて相続人1人1人に個別の不動産を割り当てるべきです。包括遺贈（共有）で遺言書を書いておくと、逝去後に大きな相続紛争になる可能性が高いです。家族兄弟だから話し合いで解決できると思うのは幻想です。共有ですと、売りたい相続人VS保有したい相続人の争いになります。"
          },
          "s090105": {
            "name": "・（現金財産の）相続税を節税して軽減させる方法は？",
            "img": "category_thumb_s000.png",
            "description": "現金の財産も、逝去前に不動産に変えておけば相続税を大幅に圧縮出来ますし、負債を故意に作る事によって財産評価額を下げて、更に相続税を大幅に圧縮出来ます。相続税は市場価格では無く、路線価（市場価格の約70％程度）にて計算される為、例えば1億円の現金で、1億円の不動産を買うだけで、3,000万円もの節税になります。"
          },
          "s090106": {
            "name": "・（不動産財産の）相続税を節税して軽減させる方法は？",
            "img": "category_thumb_s000.png",
            "description": "不動産を所有している場合は、負債を故意に作る事によって財産評価額を下げて、更に相続税を大幅に圧縮出来ます。具体的には、借金して更地に賃貸用アパマンを建てたり、既存の建物を取り壊して賃貸用アパマンを建てる形です。土地の財産と借金を通算して財産評価額を下げます。"
          }
        }
      },
      "m1002": {
        "name": "不動産相続については、相続専門の弁護士の先生に相談するのが良いですか？",
        "img": "category_thumb_m00.png",
        "description": "相続専門の弁護士の先生に相続対策を相談するのは非常に有効です。特に、公正証書遺言の作成については、大きな効果を発揮するでしょう。ただし、アパマン建設で負債を故意に作る形等での相続税を減らす形でのコンサルティングが出来る弁護士の先生は極めて限られるのが現実です。このコンサルが出来る為には不動産投資についても精通している必要が有り、不動産業者の専門性と弁護士の先生の専門的知識を融合させる方法論をこのトピックでは扱って参ります。",
        "small_categories": {
          "s100201": {
            "name": "・普通の弁護士と、不動産相続専門の弁護士先生の違いは有りますか？",
            "img": "category_thumb_s000.png",
            "description": "弁護士の先生は、概して自分の専門的分野には極めて強いですが、専門外については普通の知識しか持っていないケースが多いです。具体的には、刑事弁護が強い先生は民事紛争の知識は普通であるケースが多いでしょう。相続案件でも株式や会社承継に強い先生もいれば、不動産相続に強い先生も居る感じです。不動産相続の質問は、経験豊富でキャリアが有る、不動産相続に強い先生にお願いするべきです。"
          },
          "s100202": {
            "name": "・不動産相続で、良い弁護士の先生を選定する基準はどこですか？",
            "img": "category_thumb_s000.png",
            "description": "弁護士の先生御自身が、不動産投資をされておられる事をアピールされている事も判断基準にすると良いでしょう。不動産投資のローン借り入れで負債を作り、財産を圧縮する事はハードル高くないですが、肝心の購入不動産が糞物件だったりすると入居者が埋まらずに破産しかねません。"
          },
          "s100203": {
            "name": "・遺言書の良い作成方法について教えて下さい。",
            "img": "category_thumb_s000.png",
            "description": "必ず、弁護士の先生にお願いして公正証書遺言の作成をお勧め致します。（これから亡くなる）被相続人が自分で書くと書類の不備等で無効になる可能性も有りお勧めできませんし、良いアドバイスも頂けるでしょう。相続専門の弁護士の先生主導の公正証書遺言と言う前提ですが、土地の登記簿謄本や関連書類を持参し、数時間かけて、じっくりと対応して下さる先生を選ぶべきです。"
          }
        }
      },
      "m1003": {
        "name": "不動産相続については、信託銀行の遺言信託サービスを利用するのが良いですか？",
        "img": "category_thumb_m00.png",
        "description": "資産が1億円以上ある様な裕福層の方は、信託銀行の遺言信託サービスを利用するのがお勧めです。裕福層を対象にしたサービスですので、対応も良好で気持ち良くサービスを受ける事が可能です。不動産相続も含めて相続全般を、遺言書の作成～遺言書の保管～逝去時の不動産財産や金融財産の分割相続まで、ワンストップにて提供して下さります。",
        "small_categories": {
          "s100301": {
            "name": "・遺言信託サービスとは何ですか？",
            "img": "category_thumb_s000.png",
            "description": "不動産相続も含めて相続全般を、遺言書の作成～遺言書の保管～逝去時の不動産財産や金融財産の分割相続まで、ワンストップにて提供して下さります。弁護士の先生も、同様のサービスを行っておられる事務所も有るのですが、相続は30年前後の長期に及ぶ仕事であり、担当弁護士が認知症になったり、逝去するリスクも有りますので、事務所の規模等を考慮して検討されると良いでしょう。"
          },
          "s100302": {
            "name": "・評判の良い遺言信託サービスを提供している信託銀行の選定方法は？",
            "img": "category_thumb_s000.png",
            "description": "現在、三井住友信託銀行、三菱ＵＦＪ信託銀行、野村信託銀行、ＳＭＢＣ信託銀行、みずほ信託銀行等が業務を行っております。基本的には財務省の指導の基に提供しているので、サービスに差異は無いハズですが、社風の違いにより生じる細かな差異をこのトピックでは扱って行きます。"
          }
        }
      },
      "m1004": {
        "name": "遺言サービス全般の希望者様の個別案件の相談コーナー",
        "img": "category_thumb_m00.png",
        "description": "",
        "small_categories": {
          "s100401": {
            "name": "・不動産相続や遺言に伴う不動産物件の相談質問と共に、不動産のリンク先or写真、図面を貼って質問して下されば、相続専門の弁護士の先生や、相続関連業者、不動産業者や、専門家や実務家がアドバイス、見積もりを提示致します。具体的に、個人を特定されない範囲で、御質問内容や希望を詳細に書いて下さいませ。",
            "img": "category_thumb_s000.png",
            "description": "不動産相続や遺言に伴う不動産物件の相談質問と共に、不動産のリンク先or写真、図面を貼って質問して下されば、相続専門の弁護士の先生や、相続関連業者、不動産業者や、専門家や実務家がアドバイス、見積もりを提示致します。具体的に、個人を特定されない範囲で、御質問内容や希望を詳細に書いて下さいませ。"
          }
        }
      }
    },
    "deploy_flag":0
  },
  "l11": {
    "name": "引っ越し＆ゴミ捨て",
    "icon": "category_icon11.png",
    "description": "引っ越し難民が話題になった2018年の春ですが、賃貸に不可欠な引っ越しと、引っ越しの際に出る大量の粗大ごみ捨て、通常のゴミ捨て置き場関連のマニアックなＱ＆Ａを取り扱うトピックです。現状、引っ越しは「引っ越しのサカイ」の一強ですが、それに続く引っ越し業者との差異や、ゴミ捨て業者の評判、ゴミ捨て場関連のトラブル等も話題にしたいと思います。",
    "middle_categories": {
      "m1101": {
        "name": "引っ越し全般のテーマについての質問です",
        "img": "category_thumb_m00.png",
        "description": "通常の引っ越し業者に加えて、プロレスラーが従業員の業者や、女性だけのスタッフの業者の評判等も取り上げたいと思います。混み合う1～3月の繁忙期の予約の取り方と、合い見積もりにて料金を下げる方法を研究して参ります。",
        "small_categories": {
          "s110101": {
            "name": "・引っ越し料金を安く抑える方法は有りますか？",
            "img": "category_thumb_s000.png",
            "description": "複数の引っ越し業者に来て頂いて、合い見積もりを取るのがベストの方法論です。多分、「引っ越しのサカイ」がダントツで安い金額を提示して、後は他業者がそれに続く展開になりと予想されます。サイトでの打ち込みして見積もりを取る方法は面倒くさいので避けた方が良いかもしれません。"
          },
          "s110102": {
            "name": "・評判の良い引っ越し業者を選ぶ方法は？",
            "img": "category_thumb_s000.png",
            "description": "基本、東証一部上場企業である「引っ越しのサカイ」の評判が最強ですが、ヤマト運輸「ヤマトホームコンビニエンス」が引っ越しサービスを行っています。このトピックでは、業者ごとに個別に利用者の評判を書き込んで行く展開に致します。"
          },
          "s110103": {
            "name": "・引っ越しで家具が壊れました。保障を求める事は出来ますか？",
            "img": "category_thumb_s000.png",
            "description": "基本、引っ越し業者が修理代金を負担するのが通常です。修理の内容に納得いかない場合等のトラブルの内容をこのトピックで議論して行きたいと思います。"
          }
        }
      },
      "m1102": {
        "name": "引っ越しの際に出る大量の粗大ごみ捨ての話題です",
        "img": "category_thumb_m00.png",
        "description": "引っ越しの際に出る、大量の粗大ゴミですが、大抵の場合は引っ越し直前に出る形になり、1～3月の繁忙期に役所指定の粗大ゴミ業者に電話すると予約満了で普通は受け付けて貰えません。仕方無いので、電話する事になる、粗大ごみ捨て業者の話題です。",
        "small_categories": {
          "s110201": {
            "name": "・評判の良い、粗大ごみ捨て業者を選ぶ方法は？",
            "img": "category_thumb_s000.png",
            "description": "このトピックでは、業者ごとに個別に利用者の評判を書き込んで行く展開に致します。"
          }
        }
      },
      "m1103": {
        "name": "ゴミ捨て置き場関連の話題です",
        "img": "category_thumb_m00.png",
        "description": "ゴミ捨て置き場ですが、役所との協議で変更できる事を、ご存知でしたか？そんなマニアックな話題を話し合うトピックです。売却希望物件の真横にゴミ捨て場が有ると売却金額が下がりますが、上記の手続きを踏む事で高値売却が可能になります。",
        "small_categories": {
          "s110301": {
            "name": "・ゴミ捨て置き場を移動するには？",
            "img": "category_thumb_s000.png",
            "description": "ゴミ捨て置き場を移動するには、近隣の住民と話し合いをした上で、役所の清掃課に届け出る事により、変更可能です。例えば、現状存在しているゴミ捨て場ですが、別に役所が確定した訳では無いのです。近隣の住民との話し合いで、別の場所にゴミ捨て場を変更したり、ゴミ捨て場を1年ごとにローテーションで変更する事も可能です。ゴミ捨て場を変更したい方の質問相談回答を扱って行きます。"
          }
        }
      },
      "m1104": {
        "name": "引っ越し＆ゴミ捨てサービス全般の希望者様の個別案件の相談コーナー",
        "img": "category_thumb_m00.png",
        "description": "",
        "small_categories": {
          "s110401": {
            "name": "・引っ越し＆ゴミ捨てサービスの相談質問と共に、業者のリンク先or荷物やゴミの写真、図面を貼って質問して下されば、専門業者、不動産業者や、専門家や実務家がアドバイス、見積もりを提示致します。具体的に、個人を特定されない範囲で、御質問内容や希望を詳細に書いて質問して下さいませ。例えば、ペット100匹の引っ越しとか、重さ1トンあるグランドピアノの引っ越し等のマニアックな質問を歓迎致します。",
            "img": "category_thumb_s000.png",
            "description": "引っ越し＆ゴミ捨てサービスの相談質問と共に、業者のリンク先or荷物やゴミの写真、図面を貼って質問して下されば、専門業者、不動産業者や、専門家や実務家がアドバイス、見積もりを提示致します。具体的に、個人を特定されない範囲で、御質問内容や希望を詳細に書いて質問して下さいませ。例えば、ペット100匹の引っ越しとか、重さ1トンあるグランドピアノの引っ越し等のマニアックな質問を歓迎致します。"
          }
        }
      }
    },
    "deploy_flag":0
  },
  "l12": {
    "name": "離婚による不動産関連",
    "icon": "category_icon12.png",
    "description": "",
    "middle_categories": {
      "m1201": {
        "name": "離婚による不動産全般のテーマについての質問です",
        "img": "category_thumb_m00.png",
        "description": "結婚期間中に形成した財産は離婚時に折半するのが原則ですが、不動産は住宅ローンが絡むので難しい問題になります。不動産を売って、住宅ローンを清算して、金銭に変えてしまえば簡単ですが、そう上手く行けば誰も苦労しません。質問者様の置かれた状況に対する、個別案件の上手い解決方法を探って参ります。",
        "small_categories": {
          "s120101": {
            "name": "・「アンダーローン（売れば残債無し）の場合」夫が住み続け所有権を持ち、住宅ローンの残債が不動産時価よりも高いケースは？",
            "img": "category_thumb_s000.png",
            "description": "アンダーローンとは、不動産時価（2000万円）＞ローンの残債（1000万円）と言う状況です。この場合は、2000万円－1000万円＝1000万円÷2＝500万円を夫が妻に一括または分割で支払う形になります。どちらかが継続居住する場合、現金化する場合、等に分けて質問回答を蓄積して参ります。"
          },
          "s120102": {
            "name": "・「オーバーローンの場合（売っても残債有り）」夫が住み続け所有権を持ち、住宅ローンの残債が不動産時価よりも高いケースは？",
            "img": "category_thumb_s000.png",
            "description": "アンダーローンとは、不動産時価（1000万円）＞ローンの残債（2000万円）と言う状況です。この場合には、2000万円－1000万円＝1000万円÷2＝500万円づつ負債を分ける形になります。夫が銀行に500万円支払うのと並行して、妻も銀行に500万円を支払う必要が有ります。"
          },
          "s120103": {
            "name": "・妻が住み続け、所有権を持ち、住宅ローンも借り換えで妻が負担する場合は？",
            "img": "category_thumb_s000.png",
            "description": "住宅ローンを借り換えるには妻が住宅ローンの審査に通る必要が有ります。ここでは妻が定職を持ち、ローンに通ったと仮定します。アンダーローンの場合は財産分を妻から夫に支払う形で対応し、オーバーローンの場合には夫が負担の財産分を銀行に支払う形で対応します。"
          },
          "s120104": {
            "name": "・妻が住み続け、所有権は夫、住宅ローンも夫が負担する場合は？",
            "img": "category_thumb_s000.png",
            "description": "子供が有る場合に有りがちなパターンです。アンダーローンの場合は財産分を夫から妻に支払う形で対応し、オーバーローンの場合には妻も負担の財産分を銀行に支払う形で対応します。その上で、家賃を妻が夫に支払う形になります。"
          },
          "s120105": {
            "name": "・離婚する際、不動産所有者が夫婦の場合（１/２づつ共有の場合）で住宅ローンの残債が有り、「賃貸」に出す場合は？",
            "img": "category_thumb_s000.png",
            "description": "基本的には、アンダーローンの場合もオーバーローンの場合も住宅ローンを家賃収入で支払い、足らない場合には不足分を折半して支払う形になり、余れば折半して分ける形になります。"
          },
          "s120106": {
            "name": "・離婚する際、不動産所有者が夫婦の場合（１/２づつ共有の場合）で住宅ローンの残債が有り、「夫」又は「妻」が住む場合は？",
            "img": "category_thumb_s000.png",
            "description": "アンダーローンの場合には、住宅ローンは折半して支払い、居住する方が家賃相当額の半分を相手方に支払う形になります。オーバーローンの場合も同様に、住宅ローンは折半して支払い、居住する方が家賃相当額の半分を相手方に支払う形になります。"
          },
          "s120107": {
            "name": "・不動産を売却して清算する場合は？",
            "img": "category_thumb_s000.png",
            "description": "アンダーローンの場合には、売却と同時履行で残債を清算して、売却益を折半すれば良いでしょう。オーバーローンの場合は、金融機関が売却に応じない可能性が高い（担保無しの融資を嫌がる）ので、賃貸に出したりして銀行が応じるまで債務を圧縮して売却し、債務を折半して支払う形になります。"
          },
          "s120108": {
            "name": "・不動産の所有権と住宅ローンの名義が夫で、妻が住宅ローンの連帯保証人の場合は？",
            "img": "category_thumb_s000.png",
            "description": "不動産の居住者と財産や債務の配分を夫婦間で決めても、妻を連帯保証人から外すのは極めて難しいです。対策としては、連帯保証人を妻から夫の身内の人間に変えたり、夫の実家の不動産を共同担保に入れたり、連帯保証人無しの住宅ローンに借り換える、等の方法が有ります。上記の方法論で上手く行かない様でしたら、物件は売却する方向で進めた方が良いでしょう。"
          }
        }
      },
      "m1202": {
        "name": "離婚による不動産問題全般のテーマの個別案件の相談コーナー",
        "img": "category_thumb_m00.png",
        "description": "",
        "small_categories": {
          "s120201": {
            "name": "離婚により派生する不動産問題の相談質問と共に、不動産のリンク先or写真、図面を貼って質問して下されば、離婚問題専門の弁護士の先生や、関連業者、不動産業者や、専門家や実務家がアドバイス、見積もりを提示致します。具体的に、個人を特定されない範囲で、御質問内容や希望を詳細に書いて下さいませ。",
            "img": "category_thumb_s000.png",
            "description": "「離婚による不動産問題全般のテーマの個別案件の相談コーナー」離婚により派生する不動産問題の相談質問と共に、不動産のリンク先or写真、図面を貼って質問して下されば、離婚問題専門の弁護士の先生や、関連業者、不動産業者や、専門家や実務家がアドバイス、見積もりを提示致します。具体的に、個人を特定されない範囲で、御質問内容や希望を詳細に書いて下さいませ。"
          }
        }
      }
    },
    "deploy_flag":0
  },
  "l13": {
    "name": "駐車場",
    "icon": "category_icon13.png",
    "description": "自宅の駐車場に勝手に他人の車が停まっていた場合、どの様に対応すれば良いでしょうか？等の駐車場に関連するトピックです。ひたすらにマニアな論点を追求して行きます。",
    "middle_categories": {
      "m1301": {
        "name": "駐車場全般のテーマについての質問です",
        "img": "category_thumb_m00.png",
        "description": "良く有る、駐車場全般の話題をテーマにします。",
        "small_categories": {
          "s130101": {
            "name": "・貸駐車場に停めた車が破壊されました。地主の保障は？",
            "img": "category_thumb_s000.png",
            "description": "民法上は地主に管理責任が有るので地主が損害賠償を追うはずですが、賃貸契約書に地主の責任免除の項目が必ず入って居るので地主の責任は追及できません。この場合、車を破壊した犯人を捜して損害賠償請求する事になりますが、犯人を特定しても犯人に私財が無ければ泣き寝入りせざるを得ないでしょう。"
          },
          "s130102": {
            "name": "・勝手に自分の駐車場に、車を止められてますが対応方法は？",
            "img": "category_thumb_s000.png",
            "description": "非常に良く有るトラブルで有り、スーパーの駐車場等では放置自動車が大問題になっています。放置自動車を勝手に動かすと自力救済に当たり、器物損壊等の民事刑事責任を問われて大問題に発展する可能性が有ります。法律上の手続きとしては、車のナンバーや車検証から所有者を割り出して、内容証明郵便を送り、その上で裁判で勝訴判決と債務名義を取り、車両移転の強制執行をするか強制競売の手続きをする事になります。約半年の期間と莫大な手間と数十万円の弁護士費用が掛かります。"
          },
          "s130103": {
            "name": "・駐車場（敷地内）の放置自動車ですが、一部公道に、はみ出る形で駐車してあるのですが、警察に駐禁の切符を切って貰う事は可能でしょうか？",
            "img": "category_thumb_s000.png",
            "description": "警察が駐禁の切符を切れるのは、車の半分以上、道路にはみ出て居る場合です。逆に言うと、１／３程度、車体が道路にはみ出ている程度では摘発できないと言う事です。この場合には、警察は車庫法違反等で検挙するしか無いようです。確信犯的にこのような違法行為を繰り返す人間も居るようです。"
          },
          "s130104": {
            "name": "・駐車場への放置自動車の所有者を調べる方法は？",
            "img": "category_thumb_s000.png",
            "description": "陸運局や自動車検査登録事務所にて、現在登録事項等証明書と別途申立書（私有地放置車両関係位置図）に、放置場所・放置日数（放置期間）・（地図、写真の添付）を添付して提出すると、車の所有者が判明します。"
          },
          "s130105": {
            "name": "・商業施設内の駐車場の放置自動車に困っており、対策は？",
            "img": "category_thumb_s000.png",
            "description": "放置自動車の合法的な撤去は、別のトピックにも詳細に説明されている通り、非常な困難が伴うのが現実ですので、違法駐車されない様に事前に対策を打つのが重要です。（1）まず、違法駐車厳禁の看板を貼る。（2）カラーコーンを複数配置し、物理的に停められないようにする。（3）アコーディオン門扉で入り口を閉める。等の対策が必要です。"
          },
          "s130106": {
            "name": "・平置き式と、自動式の駐車場のどちらが良いでしょうか？",
            "img": "category_thumb_s000.png",
            "description": "１台分の駐車スペースに２台分の車が駐車出来る自動式駐車場は魅力的に思えますが、使い勝手が悪くて極めて不評なのが現実です。設置費用に加えて、撤去費用も相当な金額が掛かるので、設置前に複数業者から見積もりを取り、熟考される事をお勧め致します。このトピックで、設置経験者から経験談を聞くのも良いでしょう。"
          },
          "s130107": {
            "name": "・駐車場のライン引き（停止線）を書いてくれる業者の費用はどの程度？",
            "img": "category_thumb_s000.png",
            "description": "10台分当たり5万円程度ですが業者によるので相見積もりを取るのが良いでしょう。このトピックでは、ライン引き業者さんの評判や対応を個別に論評して行きましょう。"
          },
          "s130108": {
            "name": "・駐車場のライン引き（停止線）を、大家が自分で行う事は可能ですか？",
            "img": "category_thumb_s000.png",
            "description": "アマゾン等で、ライン引きセットが売っているので十分可能です。新たに引くには寸法等の困難が伴いますが、引き直しで有れば自分で十分対応出来るでしょう。"
          },
          "s130109": {
            "name": "・自分の土地で、業者に管理委託する形で、コインパーキングを経営したいのですが、初期費用は？",
            "img": "category_thumb_s000.png",
            "description": "三井のリパークや、エイブルパーキング等の運営業者は土地の借り上げ方式で初期費用や管理は業者負担でリスク無く運営できます。各業者の条件や社風の違いを個別に議論して行きましょう。"
          },
          "s1301010": {
            "name": "・自家用車を所有していますが、どの程度の大きさの駐車場で有れば止められますか？",
            "img": "category_thumb_s000.png",
            "description": "駐車場を借りるor買う場合で重要なのは、実際に駐車予定の車を停めてみる事です。車の車体の長さと幅等のカタログスペック等だけで借りてしまうと、駐車場の隣の大きい車が邪魔で車庫入れ出来ない等の予期しないトラブルの可能性が存在します。また、駐車場の大家が異常に厳しく、わずか数センチはみ出るだけでクレームを付けられて、駐車場を借り換えた事例も存在します。"
          },
          "s1301011": {
            "name": "・敷地延長（旗竿地）の自宅を買う予定ですが、どの程度の幅が有れば車を駐車出来ますか？",
            "img": "category_thumb_s000.png",
            "description": "敷地延長（旗竿地）の場合は特に、重要なのは、実際に駐車予定の車を停めてみる事です。特に、駐車場になっている敷地延長部分の出入り口が設計段階で上手く「隅切り」されて居れば良いのですが、されて居ない場合には入出庫時に困難が伴います"
          },
          "s1301012": {
            "name": "・バイク駐車場の問題点は？",
            "img": "category_thumb_s000.png",
            "description": "最近のバイクは、一昔前の爆音を響かせるマフラー付きの車体は減りました。それでもネックになるのが入車時の騒音でしょう。駐禁改正により、バイクの駐禁が厳しくなり、バイク駐車場の必要性は高まっており、このトピックの質疑応答を通じて問題点を探って行きましょう。"
          }
        }
      },
      "m1302": {
        "name": "駐車場関連の個別案件の相談コーナー",
        "img": "category_thumb_m00.png",
        "description": "",
        "small_categories": {
          "s130201": {
            "name": "駐車場関連の相談質問と共に、業者のリンク先or駐車場の写真、図面を貼って下されば、専門業者、不動産業者や、専門家や実務家がアドバイス、見積もりを提示致します。具体的に、個人を特定されない範囲で、御質問内容や希望を詳細に書いて下さいませ。",
            "img": "category_thumb_s000.png",
            "description": "「駐車場関連の個別案件の相談コーナー」駐車場関連の相談質問と共に、業者のリンク先or駐車場の写真、図面を貼って下されば、専門業者、不動産業者や、専門家や実務家がアドバイス、見積もりを提示致します。具体的に、個人を特定されない範囲で、御質問内容や希望を詳細に書いて下さいませ。"
          }
        }
      }
    },
    "deploy_flag":0
  },
  "l14": {
    "name": "民泊・シェアハウス・ゲストハウス",
    "icon": "category_icon14.png",
    "description": "「民泊・シェアハウス・ゲストハウス全般のテーマの質問です」2020年の東京オリンピック開催に向けて、民泊・シェアハウス・ゲストハウスの需要が高まり、利便性の良さと同時にトラブルも予想されます。来日する外国人の皆様へ快適な訪日を楽しんで頂き、同時にトラブルを減らすように、このトピックを通じてノウハウを共有して行きましょう。",
    "middle_categories": {
      "m1401": {
        "name": "民泊関連全般について質疑応答するトピックです",
        "img": "category_thumb_m00.png",
        "description": "2018年6月15日から合法的に民泊が運営可能になりました。オリンピックに向けて外国客の滞在場所不足が懸念される中、外国人観光客との交流を兼ねて、民泊の拡大が期待される反面、地域住民とのトラブルが懸念されています。良好な運営と、トラブルを減らす方法論を議論して行きましょう。",
        "small_categories": {
          "s140101": {
            "name": "・民泊禁止のマンションで民泊を実行している借主への対応策は？",
            "img": "category_thumb_s000.png",
            "description": "まず、法的処分ですが、①マンション管理規約にて民泊禁止の条項が入って居るかどうかを確認し、入って居ない場合には管理組合の総会を開催し、規約を作る必要が有ります。民泊を実施している大家に内容証明郵便を送っても、継続して民泊を強行している場合には、②民泊禁止の仮処分の申請を裁判所に申請します。仮処分の申請が通り、執行官が部屋に張り紙をする段階まで行けば、オーナーも民泊を止めると思われます。"
          },
          "s140102": {
            "name": "・民泊許可エリアで合法的に民泊開始する手続きは？",
            "img": "category_thumb_s000.png",
            "description": "国土交通書のHPにて、申請の書式がダウンロードできます。http://www.mlit.go.jp/kankocho/shisaku/sangyou/juutaku-shukuhaku.htmlしかし、手書きで申請書類を記入するのは困難ですので、Freeeさんのページにて作成した方が楽と思われます。https://www.freee.co.jp/vacation-rentals/?gclid=CjwKCAjw14rbBRB3EiwAKeoG_9F7KrMQSx-M3WrM1HMYSDsRHnoEJzUfMC2OWq7a0JNBLAwUuHq7shoCK7cQAvD_BwE"
          },
          "s140103": {
            "name": "・もぐりで民泊運営（ヤミ民泊）すると、どうなりますか？",
            "img": "category_thumb_s000.png",
            "description": "アパマンの一室を借りて民泊を運営するのは、その部屋の大家が良いと言っても管理組合規約で禁止されているケースが多いので難しいでしょう。また、役所への民泊許可申請も通らないので、発覚すると敷金礼金家賃や設備費が無駄になります。また、近隣の民泊運営者に密告されて潰されるケースも多いです。違法民泊も非常に多いので、儲かる可能性も有りますが、資金投資額が回収できずに大損する可能性も高いです。"
          },
          "s140104": {
            "name": "・民泊サービス代行業者の個別の評判を教えて下さい。",
            "img": "category_thumb_s000.png",
            "description": "現在、多数の民泊運営代行業者が存在していますが、客付け～鍵の受け渡し～入居説明～退去時のハウスクリーニングの一連の作業手数料が売り上げの30％前後です。一括借り上げ（サブリース）の場合は通常家賃の1.5倍前後が相場です。個別の運営代行業者について議論して行きましょう。"
          }
        }
      },
      "m1402": {
        "name": "シェアハウス関連について質疑応答するトピックです",
        "img": "category_thumb_m00.png",
        "description": "シェアハウスの定義として、住民は「個室」で共用部分は共同で「長期利用」が原則の形態と定義しておきます。かぼちゃの馬車のトラブル等も含めて、オーナーサイドと、入居者サイドの両方からの議論を期待します。",
        "small_categories": {
          "s140201": {
            "name": "・シェアハウス運営の注意点は？",
            "img": "category_thumb_s000.png",
            "description": "かぼちゃの馬車のトラブルに代表されるように、シェアハウス販売代行会社の話に乗って、割高な物件を掴まされるのが最悪のケースでしょう。かぼちゃの馬車の物件も割高でしたが、物件の立地と建物の造り自体は悪いものでは無く、適正価格で販売されて居れば問題無いハズでした。このトピックでは良好なシェアハウス運営をする為の方法論の質疑応答を進めて参ります。"
          },
          "s140202": {
            "name": "・シェアハウスに、入居者同士が交流できるリビングは有った方が良いですか？",
            "img": "category_thumb_s000.png",
            "description": "正直、住みたくてシェアハウスに好んで住んで居る人は極めて少数派で有り、住民同士の交流を望んでいる人はホトンド居ません。男性限定や女性限定の物件なら尚の事でしょう。人間関係を複雑にするリビングは、原則、作らない方が良いと思われます。もちろん、育児共同負担等のコンセプト型シェアハウス等では当然、作った方が良いでしょう。"
          },
          "s140203": {
            "name": "・かぼちゃの馬車のオーナーですが、サブリース支払い停止を受けて困っています。どうすれば良いでしょうか？",
            "img": "category_thumb_s000.png",
            "description": "決論から言うと、オリンピックまでの不動産相場が高い時期に出来れば任意売却で物件売却して残債を別のローンで借りて返却する形に持ち込むべきです。それが出来ない場合には自己破産するべきでしょう。とにかく、不動産バブル崩壊までの期間に、物件を手放す事が最優先項目です。"
          }
        }
      }
      ,
       "m1403": {
        "name": "ゲストハウス運営の注意点は？",
        "img": "category_thumb_m00.png",
        "description": "ゲストハウスの定義として、長期滞在では無く、旅行客やバックパッカー等の「短期滞在者」を想定した、主に「相部屋」での滞在利用が原則の形態と定義しておきます。オーナーサイドと、入居者サイドの両方からの議論を期待します。",
        "small_categories": {
          "s140301": {
            "name": "・ゲストハウス運営の注意点は？",
            "img": "category_thumb_s000.png",
            "description": "ゲストハウスは築古の戸建てを転用して運営するケースが多く、シェアハウスの様に多額のローンを抱えて破産するケースが少なく、リスク無く運営できるので良い商売です。懸念は、住民同士のトラブルですが、人間付き合いが好きで対人折衝能力の高いオーナーであれば上手く解決出来るでしょう。"
          },
          "s140302": {
            "name": "・共同の冷蔵庫から、勝手に人の飲食物を飲んだり食べたりする人が居ます。どのように対応すれば良いでしょうか？",
            "img": "category_thumb_s000.png",
            "description": "防犯カメラを設置し、犯人が特定出来たら、窃盗罪で有る事を説明しましょう。これでも改善されない場合には、退室して頂きましょう。これで対応可能と思われます。"
          }
        }
      },
      "m1404": {
        "name": "民泊・シェアハウス・ゲストハウスの個別案件の相談コーナー",
        "img": "category_thumb_m00.png",
        "description": "",
        "small_categories": {
          "s140401": {
            "name": "民泊・シェアハウス・ゲストハウス関連の相談質問と共に、リンク先or写真、図面を貼って下されば、専門業者、不動産業者や、専門家や実務家がアドバイス、見積もりを提示致します。具体的に、個人を特定されない範囲で、御質問内容や希望を詳細に書いて下さいませ。",
            "img": "category_thumb_s000.png",
            "description": "「民泊・シェアハウス・ゲストハウスの個別案件の相談コーナー」民泊・シェアハウス・ゲストハウス関連の相談質問と共に、リンク先or写真、図面を貼って下されば、専門業者、不動産業者や、専門家や実務家がアドバイス、見積もりを提示致します。具体的に、個人を特定されない範囲で、御質問内容や希望を詳細に書いて下さいませ。"
          }
        }
      }
    },
    "deploy_flag":0
  },
  "l15": {
    "name": "不動産トラブル",
    "icon": "category_icon15.png",
    "description": "不動産＝トラブル、と言っても過言では無い不動産業界において、不動産トラブルを回避する方法や解決策を模索するトピックです。隣人の騒音等の軽微なトラブルから、地面師による数十億円単位の詐欺事件等の大きなトラブルまで扱って参ります。",
    "middle_categories": {
      "m1501": {
        "name": "賃貸（管理）のトラブル全般",
        "img": "category_thumb_m00.png",
        "description": "隣人の騒音・共用部分の無断使用、と言った軽微なトラブルから、孤独死による大家からの遺族への損害賠償請求、と言ったハードなトラブルまで質問回答を扱って参ります。",
        "small_categories": {
          "s150101": {
            "name": "・隣人の騒音を止めさせたいです。どのように対応すれば良いですか？",
            "img": "category_thumb_s000.png",
            "description": "普通は、管理組合か管理会社に電話して騒音元の部屋番を伝えれば、管理会社から注意が行くハズです。が、世の中には常軌を逸した住民がおり、管理会社の注意を無視して騒音を出し続ける特異な住民が存在します。このような住民に対する対応策を語り合いましょう。"
          },
          "s150102": {
            "name": "・共用部分（廊下や階段）に大量の私物を保管する住民がおり困っております。どのように対応すれば良いですか？",
            "img": "category_thumb_s000.png",
            "description": "普通は、管理組合か管理会社に電話して。私物を置く人間の部屋番を伝えれば、管理会社から注意が行くハズです。が、世の中には常軌を逸した住民がおり、管理会社の注意を無視して私物を置き続ける特異な住民が存在します。このような住民に対する対応策を語り合いましょう。このようなトラブルへの対応を議論するトピックです。"
          },
          "s150103": {
            "name": "・孤独死のリフォーム代金の請求方法は？",
            "img": "category_thumb_s000.png",
            "description": "大家ですが、賃貸人が孤独死し、死後3ヶ月して発見され、リフォーム代金200万円掛かりました。遺族への損害賠償請求は、どのようにすれば良いですか？大家としては、連帯保証人や相続人にリフォーム代金と精神的瑕疵による将来の家賃の減額分を請求する事になります。相続人については、相続放棄をされる可能性が高く、連帯保証人との調停か裁判になるでしょう。このようなトラブルへの対応を議論するトピックです。"
          },
          "s150103": {
            "name": "・賃貸キャンセル時に手付金を返却してくれない場合は？",
            "img": "category_thumb_s000.png",
            "description": "賃貸不動産仲介業者に、入居申し込みをして審査が通り、手付金を5万円支払い、他の客の申し込みを止めて貰っていました。1週間後に契約予定でしたが仕事で転勤が決まりキャンセルを申し出ました。しかし、業者が5万円を返金してくれません。このようなトラブルへの対応を議論するトピックです。"
          }
        }
      },
      "m1502": {
        "name": "不動産売買のトラブル全般",
        "img": "category_thumb_m00.png",
        "description": "現在の不動産バブルの状況下では、地面師が暗躍しており被害金額も数千万円～63億円（有名なセキスイハイム事件）に上っています。不動産トラブルの最たる物は地面師による被害ですが、その他の不動産売買トラブルでも被害金額は莫大になります。トラブルの回避方法とトラブルに遭遇した際の対応方法を議論して参りましょう。",
        "small_categories": {
          "s150201": {
            "name": "・売買の売主ですが、地面師に気を付けるポイントは？",
            "img": "category_thumb_s000.png",
            "description": "基本的に地面師が狙う物件は1億円以上の物件ですが、中には6000万円程度の物件でもターゲットになった事件も有ります。本物の売主なのか、事前に購入物件に行き、調査した方が良いでしょう。このトピックでは、その調査方法や方法論について議論する予定です。"
          },
          "s150202": {
            "name": "・デート商法で新築マンションを買わされた時の対応は？",
            "img": "category_thumb_s000.png",
            "description": "街コンで知り合い、付き合った彼氏に新築マンション購入を勧められて、かなり割高なマンションを購入してしまいました。購入後に急に付き合いが疎遠になり、別れました。キャンセルしたいのですが、どのように対応すれば良いですか？こういうケースの対応策を議論するトピックです。"
          },
          "s150203": {
            "name": "・事故物件を買わされた場合の対応は？",
            "img": "category_thumb_s000.png",
            "description": "都内で駅近のマンションを購入したのですが、一家3人心中した物件である事が、最近分かりました。大島てるにも掲載されていませんでした。売主に契約キャンセルか、損害賠償請求を求めたいのですが、どのように対応すれば良いですか？こういう事故物件購入のケースの対応策を議論するトピックです。"
          },
          "s150203": {
            "name": "・宅建業者以外（もぐり業者）の仲介（売却）行為は？",
            "img": "category_thumb_s000.png",
            "description": "電話勧誘での投資営業で、不動産免許を持っていない業者からマンションを買ってしまいました。特段、不都合が有る訳では無いのですが、不安です。どのように対応すれば良いですか？"
          }
        }
      },
      "m1503": {
        "name": "不動産投資のトラブル全般",
        "img": "category_thumb_m00.png",
        "description": "家賃収入での不労所得という甘い言葉に騙されて、高額物件を騙されて買わされる個人投資家が後を絶ちません。個人投資家が不動産投資を始めるのでしたら、少なくとも本を10冊は読み理論武装して、不動産営業マンを言い負かすレベルの知識を身に着けるべきです。不動産投資トラブルの回避方法と、問題物件を買った後の対応方法を議論するスレです。",
        "small_categories": {
          "s150301": {
            "name": "・サブリース減額（解除）への対応は？",
            "img": "category_thumb_s000.png",
            "description": "新築アパート（シェアハウス）を営業マンに勧められ購入しました。決め手は、30年間サブリースでの家賃補償でした。ところが、運営会社の経営状態が悪化してしまい、家賃補償を減額（打ち切り）されてしまい、銀行への返済が滞って途方に暮れています。どのように対応すれば良いですか？こういうケースの対応策を議論するトピックです。"
          },
          "s150302": {
            "name": "・満室物件を購入した直後に大量の解約が有る場合は？",
            "img": "category_thumb_s000.png",
            "description": "10部屋の満室アパート物件を買ったのですが、買った直後に、あてにしていた近くの大学が都心に移転してしまい、5部屋が空室になってしまい、家賃収入分で銀行返済分が足りずに貯金を切り崩して返済しています。客付けも限界まで頑張りましたが、もう無理です。自己破産を含めて、対応策を教えて下さい。こういうケースの対応策を議論するトピックです。"
          },
          "s150303": {
            "name": "・不動産売買契約にて購入したのに別の人に売られた場合は？",
            "img": "category_thumb_s000.png",
            "description": "手付金を支払い売買契約を完了して決済までの間に、別の人が登記を完了してしまいました。いわゆる2重譲渡が行われたようです。手付金を返金して頂きたいのですが、どのように対応すれば良いですか？こういうケースの対応策を議論するトピックです。"
          },
          "s150304": {
            "name": "・投資用物件の引き渡し直後に多数の設備が故障した場合は？",
            "img": "category_thumb_s000.png",
            "description": "アパート一棟12部屋を購入した直後に、ガスの給湯器が短期間で5つも壊れてしまいました。売買契約～決済～引き渡し後に、アパートの付属設備が複数故障してしまいました。瑕疵担保責任は3ヵ月で契約しており、まだ3ヶ月たっていません。売主に保証を求められますか？こういうケースの対応策を議論するトピックです。"
          }
        }
      },
      "m1504": {
        "name": "不動産トラブルの個別案件の相談コーナー",
        "img": "category_thumb_m00.png",
        "description": "",
        "small_categories": {
          "s150401": {
            "name": "不動産トラブルの相談質問と共に、リンク先or写真、図面を貼って下されば、専門業者、不動産業者や、専門家や実務家がアドバイス、見積もりを提示致します。具体的に、個人を特定されない範囲で、御質問内容や希望を詳細に書いて下さいませ。",
            "img": "category_thumb_s000.png",
            "description": "「不動産トラブルの個別案件の相談コーナー」不動産トラブルの相談質問と共に、リンク先or写真、図面を貼って下されば、専門業者、不動産業者や、専門家や実務家がアドバイス、見積もりを提示致します。具体的に、個人を特定されない範囲で、御質問内容や希望を詳細に書いて下さいませ。※質問例・宅建業者以外（もぐり業者）の仲介行為への対応は？・隣人のベランダからの、タバコ異臭への対応は？・古井戸の存在の不告知は、瑕疵担保責任の対象になる？"
          }
        }
      }
    },
    "deploy_flag":0
  },
  "l16": {
    "name": "地名や構造物から、安全or危険地域を見抜く方法",
    "icon": "category_icon16.png",
    "description": "※初めに断っておきますが、このトピックは差別や偏見を増長させることが目的では無く、近年、主に西日本で被害が拡大している自然災害による被害を防止する為に解説しております。差別や偏見目的の質問回答が有った場合には迅速に削除致します。近年の地球温暖化により、豪雨＆台風の被害により多数の死傷者が出ております。特に、平成26年8月豪雨による広島市の土砂災害は、死者77人を出し、大きな災害になりました。災害地域の「広島市八木市・旧名：八木蛇落地悪谷（じゃらくじあしだに）」について、地名と災害のリスクの関連性が話題になりました。「蛇が降る様な水害の地区」という意味です。昭和40年代に、蛇落地→上楽地、に変更され好印象になりましたが、土地の危険性は覆い隠されました。このような地名の変更が災害の拡大に繋がる現状を考え、不動産ドットコムでは、（旧）地名から危険性を推測し、自然災害のリスクを減らして参ります。",
    "middle_categories": {
      "m1601": {
        "name": "地名から地域性を見抜く方法全般のテーマの質問です",
        "img": "category_thumb_m00.png",
        "description": "現在の地名or旧地名から、地域の安全性or危険性を見抜く方法を具体的に追及して行くトピックです。特に売買にて不動産を購入する際には、このトピックの方法論を利用して調査されてから購入して頂ければと思います。",
        "small_categories": {
          "s160101": {
            "name": "・旧地名を知る方法を教えて下さい。",
            "img": "category_thumb_s000.png",
            "description": "戦後、行政が「印象の悪い地名」→「好印象の地名」に改名した経緯が有るのですが、同時に地名が明示してきた危険性を隠す副作用が生じています。旧地名を知る方法は「土地台帳」を、市役所や法務局で調査する方法が有ります。土地台帳には土地の、旧地名・所在・地番・地目・地積・跡地が記載されています。古い地図を図書館等で探して調べる方法も有ります。"
          },
          "s160102": {
            "name": "・どのような文字が、優良地域に利用されていますか？",
            "img": "category_thumb_s000.png",
            "description": "「山」の手、白金「台」の様に、山・台、の字が使用されている地域は海抜が高く水害の可能性が低く、地盤も良いのでＲＣを建てる際には「杭打ち」費用が抑えられる、等の地域性が有ります。このトピックでは、文字と安全性について過去の災害等も考慮しつつ、関連性を探って行きます。"
          },
          "s160103": {
            "name": "・どのような文字が、危険地域に利用されていますか？",
            "img": "category_thumb_s000.png",
            "description": "池、沼、浜、袋、河、洲、等が付く地名は地盤が悪い場合が多く、建物を建てる際には入念な地盤調査が必要です。例えば、横「浜」は、地盤が悪い地域が多く、ＲＣを建てる際には「杭打ち」費用が高くなりがち、等の地域性が有ります。このトピックでは、文字と危険性について過去の災害等も考慮しつつ、関連性を探って行きます。"
          }
        }
      },
      "m1602": {
        "name": "地名以外の構造物から地域性を見抜く方法全般の質問です",
        "img": "category_thumb_m00.png",
        "description": "現在の地名or旧地名「以外」の要因から、地域の安全性or危険性を見抜く方法を具体的に追及して行くトピックです。具体的には、石碑、神社やお寺の位置、等から地域性を研究して行くトピックです。",
        "small_categories": {
          "s160201": {
            "name": "・どのような構造物が有る地域は安全ですか？",
            "img": "category_thumb_s000.png",
            "description": "一般的に、古い神社・お寺、学校、消防署、警察署等の公共施設が有る地域は安全と言われています。また、伝統の有る街（京都、川越、等）も安全と言われています。有ると安全性が高いと言われている構造物の種類と根拠、その安全性の程度を議論するトピックです。"
          },
          "s160202": {
            "name": "・どのような構造物が有る地域は危険ですか？",
            "img": "category_thumb_s000.png",
            "description": "川の近くが堤防決壊の危険性が有るのは誰でも分かりますが、暗渠（あんきょ：川や水路の上に蓋をした通路）は分かりにくく、ゲリラ豪雨の際には災害に発展する可能性が有ります。また、洪水碑、津波碑、水害碑、等の災害碑が存在する地域は、先祖が示して下さった重要な危険性の目印であり、浸水する可能性は極めて高いと言えるでしょう。有ると危険性が高いと言われている構造物の種類と根拠、その危険性の程度を議論するトピックです。"
          }
        }
      },
      "m1603": {
        "name": "購入した土地or先祖代々住んで居る土地が危険地域だった場合の対応方法",
        "img": "category_thumb_m00.png",
        "description": "調査した結果、自分の住んで居る地域が危険地帯だったことが判明した場合の対応方法を研究するトピックです。温暖化により、豪雨や洪水のリスクは格段に高まっています。迅速に対応する方法論を研究して参ります。",
        "small_categories": {
          "s160301": {
            "name": "・購入した物件が危険地帯だったのですが対応方法は？",
            "img": "category_thumb_s000.png",
            "description": "契約書に瑕疵担保責任「免除」の項目が「無く」、危険性の説明が無く、瑕疵担保責任の有効期間であれば、契約を解除出来る可能性が有ります。もっとも、危険地帯である根拠が証明できない場合には、契約解除は難しいと思われます。契約解除出来る危険性の定義の確定と、解約or損害賠償請求の成功に至るプロセスの研究および実践を追求するトピックです。"
          },
          "s160302": {
            "name": "・先祖代々住んで居る物件が危険地帯だったのですが対応方法は？",
            "img": "category_thumb_s000.png",
            "description": "基本、売却して移転する事になると思われますが、危険性を口外すると、地域の相場が下落してしまいます。自分の不動産の売却が完了してから地元の人間に危険性を教えてあげましょう。また、自分では住まずに倉庫等で賃貸に出す方法も有ります。先祖代々住んで居る物件が危険地帯だった場合の有効な解決策を探すトピックです。"
          }
        }
      },
      "m1604": {
        "name": "地名や構造物から、安全or危険地域を見抜く為の個別案件の相談コーナー",
        "img": "category_thumb_m00.png",
        "description": "",
        "small_categories": {
          "s160401": {
            "name": "具体的な、地名や構造物の相談質問と共に、リンク先or写真、図面を貼って質問して下されば、専門業者、不動産業者や、専門家や実務家がアドバイスを致します。具体的に、個人を特定されない範囲で、御質問内容や希望を詳細に書いて下さいませ。",
            "img": "category_thumb_s000.png",
            "description": "「地名や構造物から、安全or危険地域を見抜く為の個別案件の相談コーナー」具体的な、地名や構造物の相談質問と共に、リンク先or写真、図面を貼って質問して下されば、専門業者、不動産業者や、専門家や実務家がアドバイスを致します。具体的に、個人を特定されない範囲で、御質問内容や希望を詳細に書いて下さいませ。"
          }
        }
      }
    },
    "deploy_flag":0
  },
 
  "l18": {
    "name": "風水や、四柱推命等の占いの有効性について",
    "icon": "category_icon17.png",
    "description": "不動産には理屈で説明出来ない現象が頻繁に起きます。自殺他殺が頻発する物件や、立地は良いのに入る店舗が連続して倒産する物件が存在します。半面、代々栄えている古民家や、立地は悪いのに常に繁盛している店舗も存在します。具体例ですが、市川海老蔵氏が、風水上、悪相と言われている「Ｔ字路の突き当り（路殺・家殺）」に家を買ったら、日本人と黒人のハーフに暴行され、海老蔵氏が重傷を負う。②海老蔵氏の妻の小林麻央さん34歳が乳癌で逝去。自宅ガレージに車が突っ込む事故が発生。という悪い現象が連続して起きています。こういう理屈で説明出来ない現象が有る現実を直視し、不動産ドットコムでは、風水・四柱推命と言った占いの有効性にも目を向け、皆様が良い物件を手に入れる事が出来る様にお手伝いをさせて頂きます。",
    "middle_categories": {
      "m1801": {
        "name": "物件購入の際の、占いの有効性全般のテーマの質問です",
        "img": "category_thumb_m00.png",
        "description": "物件購入の際に、占い師の先生に購入するべき方角や時期、物件を相談される購入希望者は非常に多いのが現実（5人に1人位？）です。どの占いにどの程度の有効性が有るのか、不動産ドットコムでは、質問回答を通じて有効性を探って行きたいと思います。",
        "small_categories": {
          "s180101": {
            "name": "・風水の占いはどの程度、有効ですか？",
            "img": "category_thumb_s000.png",
            "description": "風水の教えを理屈で考えると筋が通っているケースが多く、不動産業者としても納得できる部分が非常に多く存在します。例えば「Ｔ字路の突き当り（路殺・家殺）」については、物理的に車が突入する可能性が高まる事に加えて、ドアを開けた際に、長い直線道路から家の内部を他人に見られる可能性が高まります。すると、家を出入りする際に上記の可能性を注意するようになり、精神的に疲れます。この僅かな疲労の蓄積が病気に繋がるのです。"
          },
          "s180102": {
            "name": "・四柱推命等の占いはどの程度、有効ですか？",
            "img": "category_thumb_s000.png",
            "description": "有名な細木数子先生も四柱推命をアレンジされたとの事ですし、細木数子の占いの有効性は多くの人が実感されていると思います。理屈で考えると、海の満潮干潮は惑星の重力の影響で、漁業に大きな影響を及ぼします。人間の体も70％水分と考えると、海の満潮干潮と同じレベルの重力の影響を受けているのは確実です。こうのような科学的に立証されていない部分を四柱推命等の占いが明示していると考えると筋が通ります。"
          },
          "s180103": {
            "name": "・占いの先生に依頼をした場合の相場はどの程度ですか？",
            "img": "category_thumb_s000.png",
            "description": "無料から～50,000円（これ以上は未確認）までと幅広く、占いをして頂く前に先生に見積もりを取るのが重要です。また、ネットで先生の評判を調べるのも重要です。一部、宗教団体や悪徳業者の存在も指摘されているので、有名で無い先生に依頼される際は、このトピックで相談してみて下さいませ。"
          }
        }
      },
      "m1802": {
        "name": "風水や、四柱推命等の占いの個別案件の相談コーナー",
        "img": "category_thumb_m00.png",
        "description": "",
        "small_categories": {
          "s180201": {
            "name": "具体的に、物件を購入される際に、風水や、四柱推命等の相談質問と共に、物件のリンク先or写真、図面を貼って質問して下されば、占い師の先生がアドバイスを致します。具体的に、個人を特定されない範囲で、御質問内容や希望を詳細に書いて下さいませ。",
            "img": "category_thumb_s000.png",
            "description": "「風水や、四柱推命等の占いの個別案件の相談コーナー」具体的に、物件を購入される際に、風水や、四柱推命等の相談質問と共に、物件のリンク先or写真、図面を貼って質問して下されば、占い師の先生がアドバイスを致します。具体的に、個人を特定されない範囲で、御質問内容や希望を詳細に書いて下さいませ。"
          }
        }
      }
    },
    "deploy_flag":0
  }
}